what,kind,bundleId,bundleVersion,description,time
os,sysinfo,,,"macosx",1318533451137
arch,sysinfo,,,"x86_64",1318533451137
ws,sysinfo,,,"cocoa",1318533451137
locale,sysinfo,,,"en_US",1318533451137
processors,sysinfo,,,"4",1318533451137
java.runtime.name,sysinfo,,,"Java(TM) SE Runtime Environment",1318533451137
java.runtime.version,sysinfo,,,"1.6.0_26-b03-383-11A511",1318533451137
java.specification.name,sysinfo,,,"Java Platform API Specification",1318533451137
java.specification.vendor,sysinfo,,,"Sun Microsystems Inc.",1318533451137
java.specification.version,sysinfo,,,"1.6",1318533451137
java.vendor,sysinfo,,,"Apple Inc.",1318533451137
java.version,sysinfo,,,"1.6.0_26",1318533451137
java.vm.info,sysinfo,,,"mixed mode",1318533451137
java.vm.name,sysinfo,,,"Java HotSpot(TM) 64-Bit Server VM",1318533451137
java.vm.specification.name,sysinfo,,,"Java Virtual Machine Specification",1318533451137
java.vm.specification.vendor,sysinfo,,,"Sun Microsystems Inc.",1318533451137
java.vm.specification.version,sysinfo,,,"1.0",1318533451137
java.vm.vendor,sysinfo,,,"Apple Inc.",1318533451137
java.vm.version,sysinfo,,,"20.1-b02-383",1318533451137
started,bundle,org.tigris.subversion.subclipse.tools.usage,1.0.1,"org.tigris.subversion.subclipse.tools.usage",1318533451223
started,bundle,org.springframework.ide.eclipse.osgi.targetdefinition,2.7.2.201109122348-RELEASE,"org.springframework.ide.eclipse.osgi.targetdefinition",1318533451225
started,bundle,org.eclipse.ajdt.core,2.1.3.e37x-20110628-1900,"org.eclipse.ajdt.core",1318533451365
started,bundle,com.springsource.sts.ide.osgi,2.7.2.201109131000-RELEASE,"com.springsource.sts.ide.osgi",1318533451480
started,bundle,org.springframework.ide.eclipse.aop.core,2.7.2.201109122348-RELEASE,"org.springframework.ide.eclipse.aop.core",1318533451537
started,bundle,org.springframework.ide.eclipse.beans.core.metadata,2.7.2.201109122348-RELEASE,"org.springframework.ide.eclipse.beans.core.metadata",1318533451669
started,bundle,org.eclipse.wst.sse.core,1.1.600.v201105162116,"org.eclipse.wst.sse.core",1318533452268
started,bundle,org.eclipse.jsch.core,1.1.300.I20110514-0800,"org.eclipse.jsch.core",1318533452600
started,bundle,org.eclipse.team.cvs.core,3.3.400.I20110510-0800,"org.eclipse.team.cvs.core",1318533452600
started,bundle,org.eclipse.equinox.p2.ui,2.1.0.v20110601,"org.eclipse.equinox.p2.ui",1318533452730
started,bundle,org.springframework.ide.eclipse.webflow.core,2.7.2.201109122348-RELEASE,"org.springframework.ide.eclipse.webflow.core",1318533452739
started,bundle,com.springsource.sts.config.ui,2.7.2.201109131000-RELEASE,"com.springsource.sts.config.ui",1318533452776
started,bundle,org.eclipse.team.ui,3.6.100.I20110525-0800,"org.eclipse.team.ui",1318533452947
started,bundle,org.eclipse.equinox.p2.ui.sdk,1.0.200.v20110502-1955,"org.eclipse.equinox.p2.ui.sdk",1318533453011
started,bundle,com.springsource.sts,2.7.2.201109131000-RELEASE,"com.springsource.sts",1318533453011
started,bundle,org.eclipse.ui.console,3.5.100.v20110511,"org.eclipse.ui.console",1318533453150
started,bundle,org.springframework.ide.eclipse.uaa,2.7.2.201109122348-RELEASE,"org.springframework.ide.eclipse.uaa",1318533453352
started,bundle,org.eclipse.team.cvs.ui,3.3.400.I20110510-0800,"org.eclipse.team.cvs.ui",1318533453376
started,bundle,org.springframework.ide.eclipse.beans.mylyn,2.7.2.201109122348-RELEASE,"org.springframework.ide.eclipse.beans.mylyn",1318533453681
started,bundle,com.springsource.sts.config.core,2.7.2.201109131000-RELEASE,"com.springsource.sts.config.core",1318533453724
started,bundle,org.eclipse.ui.views.properties.tabbed,3.5.200.I20110201-0800,"org.eclipse.ui.views.properties.tabbed",1318533453754
started,bundle,org.eclipse.wst.xml.ui,1.1.200.v201105111835,"org.eclipse.wst.xml.ui",1318533455057
started,bundle,org.eclipse.wst.server.core,1.1.302.v20110518,"org.eclipse.wst.server.core",1318533458378
started,bundle,org.eclipse.wst.server.ui,1.1.305.v20110511,"org.eclipse.wst.server.ui",1318533459705
activated,workbench,org.eclipse.ui.workbench,3.7.0.I20110519-0100,"",1318533479375
activated,editor,org.eclipse.jdt.ui,3.7.0.v20110531-1200,"org.eclipse.jdt.ui.CompilationUnitEditor",1318533481221
activated,editor,org.eclipse.jdt.ui,3.7.0.v20110531-1200,"org.eclipse.jdt.ui.CompilationUnitEditor",1318533481273
closed,editor,com.springsource.sts.ide.ui,2.7.2.201109131000-RELEASE,"com.springsource.sts.internal.ide.ui.editors.MultiPageDashboardEditor",1318533481276
opened,editor,org.eclipse.jdt.ui,3.7.0.v20110531-1200,"org.eclipse.jdt.ui.CompilationUnitEditor",1318533485201
activated,editor,org.eclipse.jdt.ui,3.7.0.v20110531-1200,"org.eclipse.jdt.ui.CompilationUnitEditor",1318533485293
started,bundle,org.eclipse.jdt.junit,3.7.0.v20110505-0800,"org.eclipse.jdt.junit",1318533488249
started,bundle,org.eclipse.debug.ui,3.7.0.v20110518,"org.eclipse.debug.ui",1318533491775
started,bundle,org.eclipse.jdt.debug,3.7.0.v20110509,"org.eclipse.jdt.debug",1318533492035
started,bundle,org.eclipse.jdt.debug.ui,3.6.0.v20110512,"org.eclipse.jdt.debug.ui",1318533492184
started,bundle,org.eclipse.ajdt.ui,2.1.3.e37x-20110628-1900,"org.eclipse.ajdt.ui",1318533492294
started,bundle,org.eclipse.pde.launching,3.6.0.v20110506,"org.eclipse.pde.launching",1318533492396
started,bundle,org.eclipse.ui.views.log,1.0.200.v20110404,"org.eclipse.ui.views.log",1318533492409
started,bundle,org.eclipse.pde.ui,3.6.100.v20110603,"org.eclipse.pde.ui",1318533492417
opened,view,org.eclipse.jdt.ui,3.7.0.v20110531-1200,"org.eclipse.jdt.ui.PackageExplorer",1318533493694
started,bundle,org.springframework.ide.eclipse.ui,2.7.2.201109122348-RELEASE,"org.springframework.ide.eclipse.ui",1318533494132
started,bundle,org.springframework.ide.eclipse.aop.ui,2.7.2.201109122348-RELEASE,"org.springframework.ide.eclipse.aop.ui",1318533494135
started,bundle,org.eclipse.jgit,1.1.0.201109151100-r,"org.eclipse.jgit",1318533494227
started,bundle,org.eclipse.egit.core,1.1.0.201109151100-r,"org.eclipse.egit.core",1318533494289
started,bundle,org.eclipse.egit.ui,1.1.0.201109151100-r,"org.eclipse.egit.ui",1318533494435
started,bundle,org.tigris.subversion.clientadapter,1.6.12,"org.tigris.subversion.clientadapter",1318533494705
started,bundle,org.tigris.subversion.subclipse.core,1.6.18,"org.tigris.subversion.subclipse.core",1318533494738
started,bundle,org.eclipse.compare,3.5.200.I20110525-0800,"org.eclipse.compare",1318533494954
started,bundle,org.tigris.subversion.subclipse.ui,1.6.18,"org.tigris.subversion.subclipse.ui",1318533495087
opened,view,org.eclipse.ui.console,3.5.100.v20110511,"org.eclipse.ui.console.ConsoleView",1318533495361
activated,view,org.eclipse.ui.console,3.5.100.v20110511,"org.eclipse.ui.console.ConsoleView",1318533495446
deactivated,workbench,org.eclipse.ui.workbench,3.7.0.I20110519-0100,"",1318533502388
activated,workbench,org.eclipse.ui.workbench,3.7.0.I20110519-0100,"",1318533756518
activated,editor,org.eclipse.jdt.ui,3.7.0.v20110531-1200,"org.eclipse.jdt.ui.CompilationUnitEditor",1318533769542
deactivated,workbench,org.eclipse.ui.workbench,3.7.0.I20110519-0100,"",1318533769631
activated,view,org.eclipse.ui.console,3.5.100.v20110511,"org.eclipse.ui.console.ConsoleView",1318533769836
activated,workbench,org.eclipse.ui.workbench,3.7.0.I20110519-0100,"",1318533800590
deactivated,workbench,org.eclipse.ui.workbench,3.7.0.I20110519-0100,"",1318533802923
activated,workbench,org.eclipse.ui.workbench,3.7.0.I20110519-0100,"",1318533810835
deactivated,workbench,org.eclipse.ui.workbench,3.7.0.I20110519-0100,"",1318533813411
activated,workbench,org.eclipse.ui.workbench,3.7.0.I20110519-0100,"",1318534499295
deactivated,workbench,org.eclipse.ui.workbench,3.7.0.I20110519-0100,"",1318534503042
activated,workbench,org.eclipse.ui.workbench,3.7.0.I20110519-0100,"",1318534504011
activated,editor,org.eclipse.jdt.ui,3.7.0.v20110531-1200,"org.eclipse.jdt.ui.CompilationUnitEditor",1318534504076
closed,workbench,org.eclipse.ui.workbench,3.7.0.I20110519-0100,"",1318534504288
stopped,bundle,org.eclipse.jst.ws.axis.creation.ui,1.0.700.v201104070312,"org.eclipse.jst.ws.axis.creation.ui",1318534505491
stopped,bundle,org.eclipse.jst.ws.axis.consumption.ui,1.0.505.v201004211805,"org.eclipse.jst.ws.axis.consumption.ui",1318534505491
stopped,bundle,org.eclipse.jst.ws.axis.consumption.core,1.0.407.v201104071820,"org.eclipse.jst.ws.axis.consumption.core",1318534505491
stopped,bundle,org.eclipse.jst.ws.axis2.creation.ui,1.0.104.v201004211805,"org.eclipse.jst.ws.axis2.creation.ui",1318534505491
stopped,bundle,org.eclipse.jst.ws.axis2.consumption.ui,1.0.103.v201004211805,"org.eclipse.jst.ws.axis2.consumption.ui",1318534505492
stopped,bundle,org.eclipse.jst.ws.axis2.creation.core,1.0.106.v201004211805,"org.eclipse.jst.ws.axis2.creation.core",1318534505503
stopped,bundle,org.eclipse.jst.ws.axis2.consumption.core,1.0.105.v201004211805,"org.eclipse.jst.ws.axis2.consumption.core",1318534505534
stopped,bundle,org.eclipse.jst.ws.axis2.ui,1.0.303.v201003110431,"org.eclipse.jst.ws.axis2.ui",1318534505535
stopped,bundle,org.eclipse.jst.ws.axis2.core,1.0.204.v201004211805,"org.eclipse.jst.ws.axis2.core",1318534505535
stopped,bundle,org.eclipse.jst.ws.cxf.creation.ui,1.0.100.v201104022153,"org.eclipse.jst.ws.cxf.creation.ui",1318534505535
stopped,bundle,org.eclipse.jst.ws.creation.ui,1.0.609.v201103082016,"org.eclipse.jst.ws.creation.ui",1318534505535
stopped,bundle,org.eclipse.jst.ws.cxf.consumption.ui,1.0.0.v201003222311,"org.eclipse.jst.ws.cxf.consumption.ui",1318534505535
stopped,bundle,org.eclipse.jst.ws.consumption.ui,1.1.400.v201103082016,"org.eclipse.jst.ws.consumption.ui",1318534505535
stopped,bundle,org.eclipse.jst.ws.consumption,1.0.600.v201103082016,"org.eclipse.jst.ws.consumption",1318534505535
stopped,bundle,org.eclipse.jst.ws.cxf.consumption.core,1.0.0.v201003222311,"org.eclipse.jst.ws.cxf.consumption.core",1318534505536
stopped,bundle,org.eclipse.jst.ws.cxf.creation.core,1.0.100.v201104022153,"org.eclipse.jst.ws.cxf.creation.core",1318534505540
stopped,bundle,org.eclipse.jst.ws.cxf.ui,1.0.0.v201004171919,"org.eclipse.jst.ws.cxf.ui",1318534505540
stopped,bundle,org.eclipse.jst.ws.cxf.core,1.0.100.v201104022153,"org.eclipse.jst.ws.cxf.core",1318534505540
stopped,bundle,org.eclipse.jst.ws.uddiregistry,1.0.500.v201004211805,"org.eclipse.jst.ws.uddiregistry",1318534505540
stopped,bundle,org.eclipse.jst.ws.ui,1.0.403.v201004211805,"org.eclipse.jst.ws.ui",1318534505540
stopped,bundle,org.eclipse.jst.ws,1.0.508.v201104071820,"org.eclipse.jst.ws",1318534505550
stopped,bundle,org.eclipse.wst.ws.explorer,1.0.607.v201103082002,"org.eclipse.wst.ws.explorer",1318534505550
stopped,bundle,org.eclipse.wst.wsdl.ui,1.2.402.v201105050214,"org.eclipse.wst.wsdl.ui",1318534505550
stopped,bundle,org.eclipse.wst.ws.ui,1.1.200.v201004211805,"org.eclipse.wst.ws.ui",1318534505550
stopped,bundle,org.eclipse.wst.wsi.ui,1.0.502.v201104071820,"org.eclipse.wst.wsi.ui",1318534505550
stopped,bundle,org.eclipse.wst.wsi,1.0.401.v201104071820,"org.eclipse.wst.wsi",1318534505551
stopped,bundle,org.eclipse.wst.ws,1.1.203.v201004211805,"org.eclipse.wst.ws",1318534505551
stopped,bundle,org.eclipse.jst.j2ee.webservice.ui,1.1.500.v201105122000,"org.eclipse.jst.j2ee.webservice.ui",1318534505551
stopped,bundle,org.eclipse.jst.j2ee.webservice,1.1.400.v201004110600,"org.eclipse.jst.j2ee.webservice",1318534505551
stopped,bundle,org.eclipse.wst.ws.parser,1.0.403.v201004211805,"org.eclipse.wst.ws.parser",1318534505562
stopped,bundle,org.eclipse.jpt.dbws.eclipselink.ui,1.0.0.v201104110000,"org.eclipse.jpt.dbws.eclipselink.ui",1318534505562
stopped,bundle,com.springsource.sts.ide.metadata,2.7.2.201109131000-RELEASE,"com.springsource.sts.ide.metadata",1318534505562
stopped,bundle,com.springsource.sts.bestpractices,2.7.2.201109131000-RELEASE,"com.springsource.sts.bestpractices",1318534505562
stopped,bundle,com.springsource.sts.config.ui,2.7.2.201109131000-RELEASE,"com.springsource.sts.config.ui",1318534505562
stopped,bundle,com.springsource.sts.wizard,2.7.2.201109131000-RELEASE,"com.springsource.sts.wizard",1318534505562
stopped,bundle,com.springsource.sts.quickfix,2.7.2.201109131000-RELEASE,"com.springsource.sts.quickfix",1318534505562
stopped,bundle,org.springframework.ide.eclipse.webflow.mylyn,2.7.2.201109122348-RELEASE,"org.springframework.ide.eclipse.webflow.mylyn",1318534505562
stopped,bundle,org.springframework.ide.eclipse.webflow.ui,2.7.2.201109122348-RELEASE,"org.springframework.ide.eclipse.webflow.ui",1318534505562
stopped,bundle,com.springsource.sts.config.flow,2.7.2.201109131000-RELEASE,"com.springsource.sts.config.flow",1318534505563
stopped,bundle,com.springsource.sts.ide.configurator,2.7.2.201109131000-RELEASE,"com.springsource.sts.ide.configurator",1318534505563
stopped,bundle,com.springsource.sts.ide.ui,2.7.2.201109131000-RELEASE,"com.springsource.sts.ide.ui",1318534505563
stopped,bundle,com.springsource.sts.config.core,2.7.2.201109131000-RELEASE,"com.springsource.sts.config.core",1318534505563
stopped,bundle,org.springframework.ide.eclipse.webflow.ui.graph,2.7.2.201109122348-RELEASE,"org.springframework.ide.eclipse.webflow.ui.graph",1318534505563
stopped,bundle,org.springframework.ide.eclipse.webflow.ui.editor,2.7.2.201109122348-RELEASE,"org.springframework.ide.eclipse.webflow.ui.editor",1318534505563
stopped,bundle,org.springframework.ide.eclipse.webflow.core,2.7.2.201109122348-RELEASE,"org.springframework.ide.eclipse.webflow.core",1318534505564
stopped,bundle,org.springframework.ide.eclipse.batch,2.7.2.201109122348-RELEASE,"org.springframework.ide.eclipse.batch",1318534505564
stopped,bundle,org.springframework.ide.eclipse.aop.mylyn,2.7.2.201109122348-RELEASE,"org.springframework.ide.eclipse.aop.mylyn",1318534505564
stopped,bundle,org.springframework.ide.eclipse.aop.ui.matcher,2.7.2.201109122348-RELEASE,"org.springframework.ide.eclipse.aop.ui.matcher",1318534505564
stopped,bundle,org.springframework.ide.eclipse.aop.ui,2.7.2.201109122348-RELEASE,"org.springframework.ide.eclipse.aop.ui",1318534505564
stopped,bundle,org.springframework.ide.eclipse.aop.core,2.7.2.201109122348-RELEASE,"org.springframework.ide.eclipse.aop.core",1318534505564
stopped,bundle,org.springframework.ide.eclipse.beans.core.autowire,2.7.2.201109122348-RELEASE,"org.springframework.ide.eclipse.beans.core.autowire",1318534505564
stopped,bundle,org.springframework.ide.eclipse.beans.mylyn,2.7.2.201109122348-RELEASE,"org.springframework.ide.eclipse.beans.mylyn",1318534505564
stopped,bundle,org.springframework.ide.eclipse.beans.ui.refactoring,2.7.2.201109122348-RELEASE,"org.springframework.ide.eclipse.beans.ui.refactoring",1318534505564
stopped,bundle,org.springframework.ide.eclipse.mylyn,2.7.2.201109122348-RELEASE,"org.springframework.ide.eclipse.mylyn",1318534505564
stopped,bundle,org.springframework.ide.eclipse.osgi,2.7.2.201109122348-RELEASE,"org.springframework.ide.eclipse.osgi",1318534505564
stopped,bundle,org.springframework.ide.eclipse.beans.ui.editor,2.7.2.201109122348-RELEASE,"org.springframework.ide.eclipse.beans.ui.editor",1318534505564
stopped,bundle,org.springframework.ide.eclipse.beans.ui.graph,2.7.2.201109122348-RELEASE,"org.springframework.ide.eclipse.beans.ui.graph",1318534505564
stopped,bundle,org.springframework.ide.eclipse.beans.ui.search,2.7.2.201109122348-RELEASE,"org.springframework.ide.eclipse.beans.ui.search",1318534505565
stopped,bundle,org.springframework.ide.eclipse.beans.ui,2.7.2.201109122348-RELEASE,"org.springframework.ide.eclipse.beans.ui",1318534505565
stopped,bundle,org.springframework.ide.eclipse.beans.core.metadata,2.7.2.201109122348-RELEASE,"org.springframework.ide.eclipse.beans.core.metadata",1318534505565
stopped,bundle,org.springframework.ide.eclipse.beans.core,2.7.2.201109122348-RELEASE,"org.springframework.ide.eclipse.beans.core",1318534505577
stopped,bundle,com.springsource.sts.content.core,2.7.2.201109131000-RELEASE,"com.springsource.sts.content.core",1318534505577
stopped,bundle,com.springsource.sts.ui,2.7.2.201109131000-RELEASE,"com.springsource.sts.ui",1318534505577
stopped,bundle,com.springsource.sts.core,2.7.2.201109131000-RELEASE,"com.springsource.sts.core",1318534505578
stopped,bundle,com.springsource.sts.ide.osgi,2.7.2.201109131000-RELEASE,"com.springsource.sts.ide.osgi",1318534505579
stopped,bundle,org.springframework.ide.eclipse.ui,2.7.2.201109122348-RELEASE,"org.springframework.ide.eclipse.ui",1318534505579
stopped,bundle,org.springframework.ide.eclipse.core,2.7.2.201109122348-RELEASE,"org.springframework.ide.eclipse.core",1318534505579
stopped,bundle,org.eclipse.datatools.enablement.hsqldb.ui,1.0.0.v200906020900,"org.eclipse.datatools.enablement.hsqldb.ui",1318534505580
stopped,bundle,org.eclipse.datatools.enablement.ingres.ui,1.0.0.v201105270214,"org.eclipse.datatools.enablement.ingres.ui",1318534505580
stopped,bundle,org.eclipse.datatools.enablement.postgresql.ui,1.0.0.v200906020900,"org.eclipse.datatools.enablement.postgresql.ui",1318534505580
stopped,bundle,org.eclipse.datatools.enablement.sqlite.ui,1.0.0.v200906020900,"org.eclipse.datatools.enablement.sqlite.ui",1318534505580
stopped,bundle,org.eclipse.jpt.jpa.eclipselink.ui,2.0.0.v201104270001,"org.eclipse.jpt.jpa.eclipselink.ui",1318534505580
stopped,bundle,org.eclipse.jpt.jpa.ui,3.0.0.v201105170000,"org.eclipse.jpt.jpa.ui",1318534505580
stopped,bundle,org.eclipse.datatools.connectivity.db.generic.ui,1.0.1.v201004070709,"org.eclipse.datatools.connectivity.db.generic.ui",1318534505580
stopped,bundle,org.eclipse.datatools.connectivity.apache.derby.ui,1.0.3.v201007080903,"org.eclipse.datatools.connectivity.apache.derby.ui",1318534505580
stopped,bundle,org.eclipse.datatools.enablement.sybase.asa.schemaobjecteditor.examples,2.5.0.200810071,"org.eclipse.datatools.enablement.sybase.asa.schemaobjecteditor.examples",1318534505580
stopped,bundle,org.eclipse.datatools.enablement.sybase.asa.ui,1.0.1.v200906111150,"org.eclipse.datatools.enablement.sybase.asa.ui",1318534505580
stopped,bundle,org.eclipse.datatools.enablement.sybase.ase.ui,1.0.1.v200906020900,"org.eclipse.datatools.enablement.sybase.ase.ui",1318534505581
stopped,bundle,org.eclipse.datatools.enablement.sybase.ui,1.0.0.v200906090458,"org.eclipse.datatools.enablement.sybase.ui",1318534505581
stopped,bundle,org.eclipse.datatools.sqltools.data.ui,1.2.1.v201010270945,"org.eclipse.datatools.sqltools.data.ui",1318534505581
stopped,bundle,org.eclipse.datatools.connectivity.sqm.server.ui,1.1.100.v201009280455,"org.eclipse.datatools.connectivity.sqm.server.ui",1318534505581
stopped,bundle,org.eclipse.datatools.sqltools.ddlgen.ui,1.0.1.v201002270530,"org.eclipse.datatools.sqltools.ddlgen.ui",1318534505581
stopped,bundle,org.eclipse.datatools.sqltools.db.derby.ui,1.0.0.v200906020900,"org.eclipse.datatools.sqltools.db.derby.ui",1318534505581
stopped,bundle,org.eclipse.datatools.sqltools.db.generic.ui,1.0.0.v200906020900,"org.eclipse.datatools.sqltools.db.generic.ui",1318534505581
stopped,bundle,org.eclipse.datatools.sqltools.debugger.core.ui,1.0.0.v201003161000,"org.eclipse.datatools.sqltools.debugger.core.ui",1318534505581
stopped,bundle,org.eclipse.datatools.sqltools.routineeditor.ui,1.0.1.v201004060545,"org.eclipse.datatools.sqltools.routineeditor.ui",1318534505581
stopped,bundle,org.eclipse.datatools.sqltools.sqlbuilder,1.0.3.v201009131745,"org.eclipse.datatools.sqltools.sqlbuilder",1318534505582
stopped,bundle,org.eclipse.datatools.sqltools.debugger.core,1.0.1.v201005250945,"org.eclipse.datatools.sqltools.debugger.core",1318534505582
stopped,bundle,org.eclipse.datatools.sqltools.schemaobjecteditor.ui.pages,1.1.0.200810071,"org.eclipse.datatools.sqltools.schemaobjecteditor.ui.pages",1318534505582
stopped,bundle,org.eclipse.datatools.sqltools.schemaobjecteditor.ui,1.1.1.200810071,"org.eclipse.datatools.sqltools.schemaobjecteditor.ui",1318534505582
stopped,bundle,org.eclipse.datatools.sqltools.sqlscrapbook,1.0.1.v201005250945,"org.eclipse.datatools.sqltools.sqlscrapbook",1318534505582
stopped,bundle,org.eclipse.datatools.sqltools.sqleditor,1.0.2.v201009230800,"org.eclipse.datatools.sqltools.sqleditor",1318534505582
stopped,bundle,org.eclipse.datatools.sqltools.editor.core.ui,1.0.0.v201001150815,"org.eclipse.datatools.sqltools.editor.core.ui",1318534505582
stopped,bundle,org.eclipse.datatools.sqltools.tabledataeditor,1.0.1.v201005250945,"org.eclipse.datatools.sqltools.tabledataeditor",1318534505582
stopped,bundle,org.eclipse.datatools.connectivity.sqm.core.ui,1.2.0.v201002281800,"org.eclipse.datatools.connectivity.sqm.core.ui",1318534505582
stopped,bundle,org.eclipse.jst.j2ee.ejb.annotations.ui,1.1.200.v201004290730,"org.eclipse.jst.j2ee.ejb.annotations.ui",1318534505582
stopped,bundle,org.eclipse.datatools.connectivity.ui.dse,1.1.4.v201004270430,"org.eclipse.datatools.connectivity.ui.dse",1318534505582
stopped,bundle,org.eclipse.jst.j2ee.xdoclet.runtime,1.1.300.v201004280700,"org.eclipse.jst.j2ee.xdoclet.runtime",1318534505582
stopped,bundle,org.eclipse.jst.j2ee.ejb.annotations.xdoclet,1.2.200.v201103302125,"org.eclipse.jst.j2ee.ejb.annotations.xdoclet",1318534505583
stopped,bundle,org.eclipse.jst.jsf.apache.trinidad.tagsupport,1.1.200.v201104061711,"org.eclipse.jst.jsf.apache.trinidad.tagsupport",1318534505583
stopped,bundle,org.eclipse.jst.jsf.facesconfig.ui,1.2.2.v201103292152,"org.eclipse.jst.jsf.facesconfig.ui",1318534505583
stopped,bundle,org.eclipse.jst.jsf.facelet.ui,1.0.1.v201104032306,"org.eclipse.jst.jsf.facelet.ui",1318534505583
stopped,bundle,org.eclipse.jst.jsf.ui,1.3.2.v201104251204,"org.eclipse.jst.jsf.ui",1318534505583
stopped,bundle,org.eclipse.jst.pagedesigner.jsf.ui,1.2.100.v201104061711,"org.eclipse.jst.pagedesigner.jsf.ui",1318534505583
stopped,bundle,org.eclipse.jst.pagedesigner,1.3.3.v201104032306,"org.eclipse.jst.pagedesigner",1318534505583
stopped,bundle,org.eclipse.jst.jsf.common.ui,1.2.100.v201104061711,"org.eclipse.jst.jsf.common.ui",1318534505583
stopped,bundle,org.eclipse.pde.ua.ui,1.0.100.v20110516,"org.eclipse.pde.ua.ui",1318534505583
stopped,bundle,org.eclipse.datatools.connectivity.oda.template.ui,3.2.1.v201004090942,"org.eclipse.datatools.connectivity.oda.template.ui",1318534505583
stopped,bundle,org.eclipse.pde.api.tools.ui,1.0.300.v20110523-1600,"org.eclipse.pde.api.tools.ui",1318534505583
stopped,bundle,org.eclipse.pde.ds.ui,1.0.100.v20110516,"org.eclipse.pde.ds.ui",1318534505583
stopped,bundle,org.eclipse.ajdt.ui,2.1.3.e37x-20110628-1900,"org.eclipse.ajdt.ui",1318534505583
stopped,bundle,org.eclipse.pde.runtime,3.4.200.v20110508,"org.eclipse.pde.runtime",1318534505583
stopped,bundle,org.eclipse.pde.ui.templates,3.4.400.v20110516,"org.eclipse.pde.ui.templates",1318534505583
stopped,bundle,org.eclipse.pde.ui,3.6.100.v20110603,"org.eclipse.pde.ui",1318534505590
stopped,bundle,org.eclipse.ui.cheatsheets,3.4.100.v20110425,"org.eclipse.ui.cheatsheets",1318534505590
stopped,bundle,org.eclipse.help.ui,3.5.100.v20110425,"org.eclipse.help.ui",1318534505590
stopped,bundle,org.eclipse.help.webapp,3.6.0.v20110518,"org.eclipse.help.webapp",1318534505591
stopped,bundle,org.eclipse.epp.mpc.ui,1.1.0.I20110525-0742,"org.eclipse.epp.mpc.ui",1318534505610
stopped,bundle,org.eclipse.epp.usagedata.ui,1.3.1.R201106061540,"org.eclipse.epp.usagedata.ui",1318534505611
stopped,bundle,org.eclipse.ui.intro.universal,3.2.500.v20110510,"org.eclipse.ui.intro.universal",1318534505611
stopped,bundle,org.eclipse.wtp.epp.package.jee.intro,1.3.0.v201006142040,"org.eclipse.wtp.epp.package.jee.intro",1318534505611
stopped,bundle,org.eclipse.ui.intro,3.4.100.v20110425,"org.eclipse.ui.intro",1318534505611
stopped,bundle,org.eclipse.help.base,3.6.0.v201106131736,"org.eclipse.help.base",1318534505611
activated,perspective,org.eclipse.jdt.ui,,"org.eclipse.jdt.ui.JavaPerspective",1318615977529
started,bundle,org.eclipse.osgi,3.7.0.v20110613,"org.eclipse.osgi",1318615977531
started,bundle,org.eclipse.equinox.simpleconfigurator,1.0.200.v20110502-1955,"org.eclipse.equinox.simpleconfigurator",1318615977545
started,bundle,com.ibm.icu,4.4.2.v20110208,"com.ibm.icu",1318615977568
started,bundle,org.eclipse.compare.core,3.5.200.I20110208-0800,"org.eclipse.compare.core",1318615977597
started,bundle,org.eclipse.core.contenttype,3.4.100.v20110423-0524,"org.eclipse.core.contenttype",1318615977610
started,bundle,org.eclipse.core.databinding.observable,1.4.0.I20110222-0800,"org.eclipse.core.databinding.observable",1318615977624
started,bundle,org.eclipse.core.expressions,3.4.300.v20110228,"org.eclipse.core.expressions",1318615977643
started,bundle,org.eclipse.core.filebuffers,3.5.200.v20110505-0800,"org.eclipse.core.filebuffers",1318615977651
started,bundle,org.eclipse.core.filesystem,1.3.100.v20110423-0524,"org.eclipse.core.filesystem",1318615977652
started,bundle,org.eclipse.core.jobs,3.5.100.v20110404,"org.eclipse.core.jobs",1318615977652
started,bundle,org.eclipse.core.net,1.2.100.I20110511-0800,"org.eclipse.core.net",1318615977659
started,bundle,org.eclipse.core.resources,3.7.100.v20110510-0712,"org.eclipse.core.resources",1318615977666
started,bundle,org.eclipse.core.runtime,3.7.0.v20110110,"org.eclipse.core.runtime",1318615977672
started,bundle,org.eclipse.core.runtime.compatibility,3.2.100.v20100505,"org.eclipse.core.runtime.compatibility",1318615977691
started,bundle,org.eclipse.core.runtime.compatibility.auth,3.2.200.v20110110,"org.eclipse.core.runtime.compatibility.auth",1318615977703
started,bundle,org.eclipse.core.variables,3.2.500.v20110511,"org.eclipse.core.variables",1318615977710
started,bundle,org.eclipse.debug.core,3.7.0.v20110518,"org.eclipse.debug.core",1318615977735
started,bundle,org.eclipse.ecf,3.1.300.v20110531-2218,"org.eclipse.ecf",1318615977754
started,bundle,org.eclipse.ecf.filetransfer,5.0.0.v20110531-2218,"org.eclipse.ecf.filetransfer",1318615977779
started,bundle,org.eclipse.ecf.identity,3.1.100.v20110531-2218,"org.eclipse.ecf.identity",1318615977798
started,bundle,org.eclipse.ecf.provider.filetransfer,3.2.0.v20110531-2218,"org.eclipse.ecf.provider.filetransfer",1318615977800
started,bundle,org.eclipse.ecf.provider.filetransfer.httpclient,4.0.0.v20110531-2218,"org.eclipse.ecf.provider.filetransfer.httpclient",1318615977804
started,bundle,org.eclipse.emf.common,2.7.0.v20110605-0747,"org.eclipse.emf.common",1318615977828
started,bundle,org.eclipse.emf.ecore,2.7.0.v20110605-0747,"org.eclipse.emf.ecore",1318615977875
