what,kind,bundleId,bundleVersion,description,time
started,bundle,org.eclipse.ui.views,3.6.0.I20110412-0800,"org.eclipse.ui.views",1317471868310
started,bundle,org.eclipse.ui.views.log,1.0.200.v20110404,"org.eclipse.ui.views.log",1317471868310
started,bundle,org.eclipse.ui.workbench,3.7.0.I20110519-0100,"org.eclipse.ui.workbench",1317471868310
started,bundle,org.eclipse.ui.workbench.texteditor,3.7.0.v20110505-0800,"org.eclipse.ui.workbench.texteditor",1317471868311
started,bundle,org.eclipse.update.configurator,3.3.100.v20100512,"org.eclipse.update.configurator",1317471868311
started,bundle,org.eclipse.wst.common.project.facet.core,1.4.200.v201103170332,"org.eclipse.wst.common.project.facet.core",1317471868313
started,bundle,com.springsource.sts.ide.configurator,2.7.2.201109131000-RELEASE,"com.springsource.sts.ide.configurator",1317471868313
started,bundle,com.springsource.sts.ide.ui,2.7.2.201109131000-RELEASE,"com.springsource.sts.ide.ui",1317471868313
started,bundle,org.springframework.ide.eclipse.aop.core,2.7.2.201109122348-RELEASE,"org.springframework.ide.eclipse.aop.core",1317471868314
started,bundle,org.springframework.ide.eclipse.aop.ui,2.7.2.201109122348-RELEASE,"org.springframework.ide.eclipse.aop.ui",1317471868315
started,bundle,org.springframework.ide.eclipse.beans.core,2.7.2.201109122348-RELEASE,"org.springframework.ide.eclipse.beans.core",1317471868317
started,bundle,org.springframework.ide.eclipse.beans.ui,2.7.2.201109122348-RELEASE,"org.springframework.ide.eclipse.beans.ui",1317471868321
started,bundle,org.springframework.ide.eclipse.core,2.7.2.201109122348-RELEASE,"org.springframework.ide.eclipse.core",1317471868341
started,bundle,org.springframework.ide.eclipse.ui,2.7.2.201109122348-RELEASE,"org.springframework.ide.eclipse.ui",1317471868341
started,bundle,org.eclipse.egit.core,1.1.0.201109151100-r,"org.eclipse.egit.core",1317471868341
started,bundle,org.eclipse.egit.ui,1.1.0.201109151100-r,"org.eclipse.egit.ui",1317471868341
started,bundle,org.eclipse.jgit,1.1.0.201109151100-r,"org.eclipse.jgit",1317471868341
os,sysinfo,,,"macosx",1317471868346
arch,sysinfo,,,"x86_64",1317471868346
ws,sysinfo,,,"cocoa",1317471868346
locale,sysinfo,,,"en_US",1317471868346
processors,sysinfo,,,"4",1317471868346
java.runtime.name,sysinfo,,,"Java(TM) SE Runtime Environment",1317471868346
java.runtime.version,sysinfo,,,"1.6.0_26-b03-383-11A511",1317471868346
java.specification.name,sysinfo,,,"Java Platform API Specification",1317471868346
java.specification.vendor,sysinfo,,,"Sun Microsystems Inc.",1317471868346
java.specification.version,sysinfo,,,"1.6",1317471868346
java.vendor,sysinfo,,,"Apple Inc.",1317471868346
java.version,sysinfo,,,"1.6.0_26",1317471868346
java.vm.info,sysinfo,,,"mixed mode",1317471868346
java.vm.name,sysinfo,,,"Java HotSpot(TM) 64-Bit Server VM",1317471868346
java.vm.specification.name,sysinfo,,,"Java Virtual Machine Specification",1317471868346
java.vm.specification.vendor,sysinfo,,,"Sun Microsystems Inc.",1317471868346
java.vm.specification.version,sysinfo,,,"1.0",1317471868346
java.vm.vendor,sysinfo,,,"Apple Inc.",1317471868346
java.vm.version,sysinfo,,,"20.1-b02-383",1317471868346
started,bundle,org.tigris.subversion.clientadapter,1.6.12,"org.tigris.subversion.clientadapter",1317471868401
started,bundle,org.tigris.subversion.subclipse.core,1.6.18,"org.tigris.subversion.subclipse.core",1317471868419
started,bundle,org.eclipse.compare,3.5.200.I20110525-0800,"org.eclipse.compare",1317471868486
started,bundle,org.tigris.subversion.subclipse.ui,1.6.18,"org.tigris.subversion.subclipse.ui",1317471868521
started,bundle,com.springsource.sts.ide.metadata,2.7.2.201109131000-RELEASE,"com.springsource.sts.ide.metadata",1317471868588
started,bundle,org.eclipse.contribution.weaving.jdt,2.1.3.e37x-20110628-1900,"org.eclipse.contribution.weaving.jdt",1317471868646
started,bundle,org.aspectj.ajde,1.6.12.20110613132200,"org.aspectj.ajde",1317471868747
started,bundle,org.eclipse.equinox.p2.ui.sdk.scheduler,1.0.100.v20110502-1955,"org.eclipse.equinox.p2.ui.sdk.scheduler",1317471868801
started,bundle,org.eclipse.equinox.p2.updatechecker,1.1.200.v20110502-1955,"org.eclipse.equinox.p2.updatechecker",1317471868802
started,bundle,org.eclipse.wst.web,1.1.500.v201104251400,"org.eclipse.wst.web",1317471868809
started,bundle,org.eclipse.jst.ws.jaxws.utils,1.0.0.v201004171919,"org.eclipse.jst.ws.jaxws.utils",1317471868820
started,bundle,org.eclipse.mylyn.team.ui,3.6.0.v20110608-1400,"org.eclipse.mylyn.team.ui",1317471868826
started,bundle,org.eclipse.emf.common,2.7.0.v20110605-0747,"org.eclipse.emf.common",1317471868853
started,bundle,org.eclipse.update.scheduler,3.2.300.v20100512,"org.eclipse.update.scheduler",1317471868895
started,bundle,org.eclipse.update.core,3.2.500.v20110330,"org.eclipse.update.core",1317471868906
started,bundle,org.tigris.subversion.subclipse.tools.usage,1.0.1,"org.tigris.subversion.subclipse.tools.usage",1317471868909
started,bundle,org.springframework.ide.eclipse.osgi.targetdefinition,2.7.2.201109122348-RELEASE,"org.springframework.ide.eclipse.osgi.targetdefinition",1317471868913
started,bundle,org.eclipse.emf.ecore,2.7.0.v20110605-0747,"org.eclipse.emf.ecore",1317471868920
started,bundle,org.eclipse.ajdt.core,2.1.3.e37x-20110628-1900,"org.eclipse.ajdt.core",1317471868929
started,bundle,org.eclipse.jst.common.project.facet.core,1.4.200.v201103170302,"org.eclipse.jst.common.project.facet.core",1317471868985
started,bundle,org.eclipse.jst.ws.jaxrs.core,1.0.300.v201011231608,"org.eclipse.jst.ws.jaxrs.core",1317471868988
started,bundle,org.eclipse.emf.ecore.xmi,2.7.0.v20110520-1406,"org.eclipse.emf.ecore.xmi",1317471869058
started,bundle,org.springframework.ide.eclipse.uaa,2.7.2.201109122348-RELEASE,"org.springframework.ide.eclipse.uaa",1317471869537
started,bundle,org.eclipse.wst.server.core,1.1.302.v20110518,"org.eclipse.wst.server.core",1317471874546
started,bundle,org.eclipse.wst.server.ui,1.1.305.v20110511,"org.eclipse.wst.server.ui",1317471876149
activated,editor,org.eclipse.jdt.ui,3.7.0.v20110531-1200,"org.eclipse.jdt.ui.PropertiesFileEditor",1317471965305
activated,editor,org.eclipse.jdt.ui,3.7.0.v20110531-1200,"org.eclipse.jdt.ui.PropertiesFileEditor",1317471965332
closed,view,org.eclipse.ui,3.7.0.I20110602-0100,"org.eclipse.ui.internal.introview",1317471965347
deactivated,workbench,org.eclipse.ui.workbench,3.7.0.I20110519-0100,"",1317472916643
activated,workbench,org.eclipse.ui.workbench,3.7.0.I20110519-0100,"",1317472923466
deactivated,workbench,org.eclipse.ui.workbench,3.7.0.I20110519-0100,"",1317472925506
activated,workbench,org.eclipse.ui.workbench,3.7.0.I20110519-0100,"",1317473913046
deactivated,workbench,org.eclipse.ui.workbench,3.7.0.I20110519-0100,"",1317473960904
activated,workbench,org.eclipse.ui.workbench,3.7.0.I20110519-0100,"",1317474553778
started,bundle,org.eclipse.ltk.ui.refactoring,3.6.0.v20110505-0800,"org.eclipse.ltk.ui.refactoring",1317474556215
opened,editor,org.eclipse.jdt.ui,3.7.0.v20110531-1200,"org.eclipse.jdt.ui.CompilationUnitEditor",1317474556325
started,bundle,com.springsource.sts.quickfix,2.7.2.201109131000-RELEASE,"com.springsource.sts.quickfix",1317474557029
started,bundle,org.eclipse.jdt.apt.core,3.3.500.v20110420-1015,"org.eclipse.jdt.apt.core",1317474557034
started,bundle,org.eclipse.jdt.apt.pluggable.core,1.0.400.v20110305-1450,"org.eclipse.jdt.apt.pluggable.core",1317474557536
activated,editor,org.eclipse.jdt.ui,3.7.0.v20110531-1200,"org.eclipse.jdt.ui.CompilationUnitEditor",1317474557648
closed,editor,org.eclipse.jdt.ui,3.7.0.v20110531-1200,"org.eclipse.jdt.ui.PropertiesFileEditor",1317474557649
opened,editor,org.eclipse.jdt.ui,3.7.0.v20110531-1200,"org.eclipse.jdt.ui.CompilationUnitEditor",1317474562531
activated,editor,org.eclipse.jdt.ui,3.7.0.v20110531-1200,"org.eclipse.jdt.ui.CompilationUnitEditor",1317474562693
activated,view,org.eclipse.jdt.ui,3.7.0.v20110531-1200,"org.eclipse.jdt.ui.PackageExplorer",1317474574709
started,bundle,org.springframework.ide.eclipse.webflow.ui,2.7.2.201109122348-RELEASE,"org.springframework.ide.eclipse.webflow.ui",1317474576762
started,bundle,org.eclipse.wst.sse.core,1.1.600.v201105162116,"org.eclipse.wst.sse.core",1317474576963
started,bundle,org.springframework.ide.eclipse.webflow.core,2.7.2.201109122348-RELEASE,"org.springframework.ide.eclipse.webflow.core",1317474576986
started,bundle,com.springsource.sts.config.ui,2.7.2.201109131000-RELEASE,"com.springsource.sts.config.ui",1317474577054
started,bundle,org.eclipse.jpt.common.core,1.0.0.v201105180000,"org.eclipse.jpt.common.core",1317474577069
started,bundle,org.eclipse.jpt.jpa.core,3.0.0.v201105250001,"org.eclipse.jpt.jpa.core",1317474577070
deactivated,workbench,org.eclipse.ui.workbench,3.7.0.I20110519-0100,"",1317474585425
activated,workbench,org.eclipse.ui.workbench,3.7.0.I20110519-0100,"",1317474592595
activated,editor,org.eclipse.jdt.ui,3.7.0.v20110531-1200,"org.eclipse.jdt.ui.CompilationUnitEditor",1317474592636
deactivated,workbench,org.eclipse.ui.workbench,3.7.0.I20110519-0100,"",1317474599101
activated,view,org.eclipse.jdt.ui,3.7.0.v20110531-1200,"org.eclipse.jdt.ui.PackageExplorer",1317475033374
activated,workbench,org.eclipse.ui.workbench,3.7.0.I20110519-0100,"",1317475033477
opened,editor,org.eclipse.jdt.ui,3.7.0.v20110531-1200,"org.eclipse.jdt.ui.CompilationUnitEditor",1317475038761
activated,editor,org.eclipse.jdt.ui,3.7.0.v20110531-1200,"org.eclipse.jdt.ui.CompilationUnitEditor",1317475038905
started,bundle,org.eclipse.jdt.junit,3.7.0.v20110505-0800,"org.eclipse.jdt.junit",1317475038961
deactivated,workbench,org.eclipse.ui.workbench,3.7.0.I20110519-0100,"",1317475055010
activated,workbench,org.eclipse.ui.workbench,3.7.0.I20110519-0100,"",1317475154963
activated,view,org.eclipse.jdt.ui,3.7.0.v20110531-1200,"org.eclipse.jdt.ui.PackageExplorer",1317475159743
opened,editor,org.eclipse.jdt.ui,3.7.0.v20110531-1200,"org.eclipse.jdt.ui.CompilationUnitEditor",1317475185190
activated,editor,org.eclipse.jdt.ui,3.7.0.v20110531-1200,"org.eclipse.jdt.ui.CompilationUnitEditor",1317475185304
deactivated,workbench,org.eclipse.ui.workbench,3.7.0.I20110519-0100,"",1317475214621
activated,workbench,org.eclipse.ui.workbench,3.7.0.I20110519-0100,"",1317479245822
deactivated,workbench,org.eclipse.ui.workbench,3.7.0.I20110519-0100,"",1317479252814
activated,workbench,org.eclipse.ui.workbench,3.7.0.I20110519-0100,"",1317479835220
activated,view,org.eclipse.ui.views,3.6.0.I20110412-0800,"org.eclipse.ui.views.ContentOutline",1317479849823
activated,view,org.eclipse.jdt.ui,3.7.0.v20110531-1200,"org.eclipse.jdt.ui.PackageExplorer",1317479858481
activated,editor,org.eclipse.jdt.ui,3.7.0.v20110531-1200,"org.eclipse.jdt.ui.CompilationUnitEditor",1317479863572
started,bundle,org.eclipse.mylyn.java.tasks,3.6.0.v20110608-1400,"org.eclipse.mylyn.java.tasks",1317479898104
opened,editor,org.eclipse.jdt.ui,3.7.0.v20110531-1200,"org.eclipse.jdt.ui.CompilationUnitEditor",1317479899028
activated,editor,org.eclipse.jdt.ui,3.7.0.v20110531-1200,"org.eclipse.jdt.ui.CompilationUnitEditor",1317479899095
started,bundle,org.eclipse.ajdt.ui,2.1.3.e37x-20110628-1900,"org.eclipse.ajdt.ui",1317479905581
started,bundle,org.eclipse.pde.core,3.7.0.v20110603,"org.eclipse.pde.core",1317479912111
activated,view,org.eclipse.jdt.ui,3.7.0.v20110531-1200,"org.eclipse.jdt.ui.PackageExplorer",1317479922280
activated,editor,org.eclipse.jdt.ui,3.7.0.v20110531-1200,"org.eclipse.jdt.ui.CompilationUnitEditor",1317479936574
activated,view,org.eclipse.jdt.ui,3.7.0.v20110531-1200,"org.eclipse.jdt.ui.PackageExplorer",1317479937805
started,bundle,org.eclipse.wst.ws.service.policy.ui,1.0.202.v201004211732,"org.eclipse.wst.ws.service.policy.ui",1317479941787
started,bundle,org.eclipse.wst.ws.service.policy,1.0.303.v201009221810,"org.eclipse.wst.ws.service.policy",1317479941788
started,bundle,org.eclipse.wst.command.env,1.0.409.v201004211805,"org.eclipse.wst.command.env",1317479941845
started,bundle,org.eclipse.wst.ws,1.1.203.v201004211805,"org.eclipse.wst.ws",1317479941845
started,bundle,org.eclipse.wst.common.frameworks.ui,1.2.100.v201105122000,"org.eclipse.wst.common.frameworks.ui",1317479941952
started,bundle,org.eclipse.wst.common.core,1.2.0.v200908252030,"org.eclipse.wst.common.core",1317479941953
started,bundle,org.eclipse.ui.navigator,3.5.100.I20110524-0800,"org.eclipse.ui.navigator",1317479942001
deactivated,workbench,org.eclipse.ui.workbench,3.7.0.I20110519-0100,"",1317479944208
started,bundle,org.eclipse.wst.common.frameworks,1.2.100.v201105122000,"org.eclipse.wst.common.frameworks",1317479947490
started,bundle,org.eclipse.wst.common.emf,1.2.100.v201101101900,"org.eclipse.wst.common.emf",1317479947502
started,bundle,org.eclipse.jem.util,2.1.100.v201103021400,"org.eclipse.jem.util",1317479947511
started,bundle,org.eclipse.wst.common.emfworkbench.integration,1.2.100.v201011172300,"org.eclipse.wst.common.emfworkbench.integration",1317479947515
started,bundle,org.eclipse.wst.common.modulecore,1.2.100.v201105191800,"org.eclipse.wst.common.modulecore",1317479947584
started,bundle,org.eclipse.jst.j2ee.core,1.2.100.v201105122000,"org.eclipse.jst.j2ee.core",1317479947587
started,bundle,org.eclipse.jem,2.0.500.v201104271400,"org.eclipse.jem",1317479947595
started,bundle,org.eclipse.wst.xml.core,1.1.600.v201104251227,"org.eclipse.wst.xml.core",1317479947614
started,bundle,org.eclipse.wst.validation,1.2.300.v201104190230,"org.eclipse.wst.validation",1317479947621
started,bundle,org.eclipse.jst.j2ee,1.1.500.v201105122000,"org.eclipse.jst.j2ee",1317479947638
started,bundle,org.eclipse.wst.jsdt.manipulation,1.0.300.v201104272153,"org.eclipse.wst.jsdt.manipulation",1317479948081
started,bundle,org.eclipse.wst.jsdt.core,1.1.100.v201104272153,"org.eclipse.wst.jsdt.core",1317479948208
started,bundle,org.eclipse.wst.jsdt.ui,1.1.100.v201105041953,"org.eclipse.wst.jsdt.ui",1317479948237
started,bundle,org.springframework.ide.eclipse.beans.ui.refactoring,2.7.2.201109122348-RELEASE,"org.springframework.ide.eclipse.beans.ui.refactoring",1317479948326
activated,workbench,org.eclipse.ui.workbench,3.7.0.I20110519-0100,"",1317479949059
executed,command,org.eclipse.ltk.ui.refactoring,3.6.0.v20110505-0800,"org.eclipse.ltk.ui.refactoring.commands.deleteResources",1317479949124
executed,command,org.eclipse.ui,3.7.0.I20110602-0100,"org.eclipse.ui.edit.delete",1317479949127
activated,editor,org.eclipse.jdt.ui,3.7.0.v20110531-1200,"org.eclipse.jdt.ui.CompilationUnitEditor",1317479998504
activated,editor,org.eclipse.jdt.ui,3.7.0.v20110531-1200,"org.eclipse.jdt.ui.CompilationUnitEditor",1317479998605
closed,editor,org.eclipse.jdt.ui,3.7.0.v20110531-1200,"org.eclipse.jdt.ui.CompilationUnitEditor",1317479998606
opened,editor,org.eclipse.jdt.ui,3.7.0.v20110531-1200,"org.eclipse.jdt.ui.CompilationUnitEditor",1317480007656
activated,editor,org.eclipse.jdt.ui,3.7.0.v20110531-1200,"org.eclipse.jdt.ui.CompilationUnitEditor",1317480007718
deactivated,workbench,org.eclipse.ui.workbench,3.7.0.I20110519-0100,"",1317480016210
activated,view,org.eclipse.jdt.ui,3.7.0.v20110531-1200,"org.eclipse.jdt.ui.PackageExplorer",1317480070120
activated,workbench,org.eclipse.ui.workbench,3.7.0.I20110519-0100,"",1317480070192
deactivated,workbench,org.eclipse.ui.workbench,3.7.0.I20110519-0100,"",1317480087065
activated,workbench,org.eclipse.ui.workbench,3.7.0.I20110519-0100,"",1317480132381
deactivated,workbench,org.eclipse.ui.workbench,3.7.0.I20110519-0100,"",1317480137827
activated,workbench,org.eclipse.ui.workbench,3.7.0.I20110519-0100,"",1317480157436
deactivated,workbench,org.eclipse.ui.workbench,3.7.0.I20110519-0100,"",1317480157483
activated,workbench,org.eclipse.ui.workbench,3.7.0.I20110519-0100,"",1317480157698
started,bundle,com.springsource.sts.ide.osgi,2.7.2.201109131000-RELEASE,"com.springsource.sts.ide.osgi",1317480158346
started,bundle,org.springframework.ide.eclipse.beans.core.metadata,2.7.2.201109122348-RELEASE,"org.springframework.ide.eclipse.beans.core.metadata",1317480158359
started,bundle,org.springframework.ide.eclipse.beans.mylyn,2.7.2.201109122348-RELEASE,"org.springframework.ide.eclipse.beans.mylyn",1317480158563
started,bundle,com.springsource.sts.config.core,2.7.2.201109131000-RELEASE,"com.springsource.sts.config.core",1317480158565
started,bundle,org.eclipse.ui.views.properties.tabbed,3.5.200.I20110201-0800,"org.eclipse.ui.views.properties.tabbed",1317480158566
started,bundle,org.eclipse.wst.xml.ui,1.1.200.v201105111835,"org.eclipse.wst.xml.ui",1317480158749
started,bundle,org.eclipse.wst.common.uriresolver,1.1.401.v201004280700,"org.eclipse.wst.common.uriresolver",1317480158839
deactivated,workbench,org.eclipse.ui.workbench,3.7.0.I20110519-0100,"",1317480163544
started,bundle,org.eclipse.ui.externaltools,3.2.0.v20110506,"org.eclipse.ui.externaltools",1317480166272
started,bundle,org.eclipse.debug.ui,3.7.0.v20110518,"org.eclipse.debug.ui",1317480166336
started,bundle,org.eclipse.core.externaltools,1.0.100.v20110506,"org.eclipse.core.externaltools",1317480166427
activated,workbench,org.eclipse.ui.workbench,3.7.0.I20110519-0100,"",1317480178785
executed,command,org.eclipse.ui,3.7.0.I20110602-0100,"org.eclipse.ui.file.properties",1317480178872
started,bundle,org.eclipse.jst.common.frameworks,1.1.500.v201104081500,"org.eclipse.jst.common.frameworks",1317480179719
started,bundle,org.eclipse.jdt.debug,3.7.0.v20110509,"org.eclipse.jdt.debug",1317480181249
started,bundle,org.eclipse.jdt.debug.ui,3.6.0.v20110512,"org.eclipse.jdt.debug.ui",1317480181288
activated,editor,org.eclipse.jdt.ui,3.7.0.v20110531-1200,"org.eclipse.jdt.ui.CompilationUnitEditor",1317480181313
opened,editor,org.eclipse.jdt.ui,3.7.0.v20110531-1200,"org.eclipse.jdt.ui.ClassFileEditor",1317480194364
activated,editor,org.eclipse.jdt.ui,3.7.0.v20110531-1200,"org.eclipse.jdt.ui.ClassFileEditor",1317480194441
deactivated,workbench,org.eclipse.ui.workbench,3.7.0.I20110519-0100,"",1317480195752
activated,workbench,org.eclipse.ui.workbench,3.7.0.I20110519-0100,"",1317480210474
activated,editor,org.eclipse.jdt.ui,3.7.0.v20110531-1200,"org.eclipse.jdt.ui.CompilationUnitEditor",1317480219829
closed,editor,org.eclipse.jdt.ui,3.7.0.v20110531-1200,"org.eclipse.jdt.ui.ClassFileEditor",1317480219829
activated,view,org.eclipse.jdt.ui,3.7.0.v20110531-1200,"org.eclipse.jdt.ui.PackageExplorer",1317480237329
started,bundle,org.eclipse.equinox.p2.garbagecollector,1.0.200.v20110510,"org.eclipse.equinox.p2.garbagecollector",1317480248824
executed,command,org.eclipse.ui,3.7.0.I20110602-0100,"org.eclipse.ui.edit.copy",1317480253565
deactivated,workbench,org.eclipse.ui.workbench,3.7.0.I20110519-0100,"",1317480269441
activated,workbench,org.eclipse.ui.workbench,3.7.0.I20110519-0100,"",1317480274770
executed,command,org.eclipse.ui,3.7.0.I20110602-0100,"org.eclipse.ui.edit.paste",1317480279591
started,bundle,org.springframework.ide.eclipse.batch,2.7.2.201109122348-RELEASE,"org.springframework.ide.eclipse.batch",1317480279817
opened,editor,org.eclipse.jdt.ui,3.7.0.v20110531-1200,"org.eclipse.jdt.ui.CompilationUnitEditor",1317480283345
activated,editor,org.eclipse.jdt.ui,3.7.0.v20110531-1200,"org.eclipse.jdt.ui.CompilationUnitEditor",1317480283423
executed,command,,,"AUTOGEN:::org.eclipse.jdt.internal.ui.CompilationUnitEditor.ruler.actions/org.eclipse.jdt.internal.ui.javaeditor.JavaSelectRulerAction",1317480290868
activated,view,org.eclipse.jdt.ui,3.7.0.v20110531-1200,"org.eclipse.jdt.ui.PackageExplorer",1317480301676
executed,command,org.eclipse.ui,3.7.0.I20110602-0100,"org.eclipse.ui.edit.copy",1317480304560
executed,command,org.eclipse.ui,3.7.0.I20110602-0100,"org.eclipse.ui.edit.paste",1317480307399
activated,editor,org.eclipse.jdt.ui,3.7.0.v20110531-1200,"org.eclipse.jdt.ui.CompilationUnitEditor",1317480310621
executed,command,org.eclipse.ui,3.7.0.I20110602-0100,"org.eclipse.ui.file.save",1317480321626
activated,view,org.eclipse.jdt.ui,3.7.0.v20110531-1200,"org.eclipse.jdt.ui.PackageExplorer",1317480328158
opened,editor,org.eclipse.jdt.ui,3.7.0.v20110531-1200,"org.eclipse.jdt.ui.CompilationUnitEditor",1317480328360
activated,editor,org.eclipse.jdt.ui,3.7.0.v20110531-1200,"org.eclipse.jdt.ui.CompilationUnitEditor",1317480328428
executed,command,org.eclipse.ui,3.7.0.I20110602-0100,"org.eclipse.ui.file.save",1317480334473
activated,editor,org.eclipse.jdt.ui,3.7.0.v20110531-1200,"org.eclipse.jdt.ui.CompilationUnitEditor",1317480338463
closed,editor,org.eclipse.jdt.ui,3.7.0.v20110531-1200,"org.eclipse.jdt.ui.CompilationUnitEditor",1317480338463
activated,view,org.eclipse.jdt.ui,3.7.0.v20110531-1200,"org.eclipse.jdt.ui.PackageExplorer",1317480339709
opened,editor,org.eclipse.jdt.ui,3.7.0.v20110531-1200,"org.eclipse.jdt.ui.CompilationUnitEditor",1317480339919
activated,editor,org.eclipse.jdt.ui,3.7.0.v20110531-1200,"org.eclipse.jdt.ui.CompilationUnitEditor",1317480339980
executed,command,org.eclipse.ui,3.7.0.I20110602-0100,"org.eclipse.ui.file.save",1317480346425
deactivated,workbench,org.eclipse.ui.workbench,3.7.0.I20110519-0100,"",1317480350159
activated,workbench,org.eclipse.ui.workbench,3.7.0.I20110519-0100,"",1317480516455
activated,view,org.eclipse.jdt.ui,3.7.0.v20110531-1200,"org.eclipse.jdt.ui.PackageExplorer",1317480519155
deactivated,workbench,org.eclipse.ui.workbench,3.7.0.I20110519-0100,"",1317480523578
activated,workbench,org.eclipse.ui.workbench,3.7.0.I20110519-0100,"",1317480532122
deactivated,workbench,org.eclipse.ui.workbench,3.7.0.I20110519-0100,"",1317480532153
activated,workbench,org.eclipse.ui.workbench,3.7.0.I20110519-0100,"",1317480532310
deactivated,workbench,org.eclipse.ui.workbench,3.7.0.I20110519-0100,"",1317480538035
activated,workbench,org.eclipse.ui.workbench,3.7.0.I20110519-0100,"",1317480547045
executed,command,org.eclipse.ui,3.7.0.I20110602-0100,"org.eclipse.ui.file.properties",1317480547112
deactivated,workbench,org.eclipse.ui.workbench,3.7.0.I20110519-0100,"",1317480552091
activated,workbench,org.eclipse.ui.workbench,3.7.0.I20110519-0100,"",1317480557260
executed,command,org.eclipse.ui,3.7.0.I20110602-0100,"org.eclipse.ui.file.properties",1317480557320
activated,editor,org.eclipse.jdt.ui,3.7.0.v20110531-1200,"org.eclipse.jdt.ui.CompilationUnitEditor",1317480560993
opened,editor,org.eclipse.jdt.ui,3.7.0.v20110531-1200,"org.eclipse.jdt.ui.ClassFileEditor",1317480563971
activated,editor,org.eclipse.jdt.ui,3.7.0.v20110531-1200,"org.eclipse.jdt.ui.ClassFileEditor",1317480564066
deactivated,workbench,org.eclipse.ui.workbench,3.7.0.I20110519-0100,"",1317480566556
activated,workbench,org.eclipse.ui.workbench,3.7.0.I20110519-0100,"",1317480582935
activated,editor,org.eclipse.jdt.ui,3.7.0.v20110531-1200,"org.eclipse.jdt.ui.CompilationUnitEditor",1317480585386
closed,editor,org.eclipse.jdt.ui,3.7.0.v20110531-1200,"org.eclipse.jdt.ui.ClassFileEditor",1317480585387
activated,editor,org.eclipse.jdt.ui,3.7.0.v20110531-1200,"org.eclipse.jdt.ui.CompilationUnitEditor",1317480590316
closed,editor,org.eclipse.jdt.ui,3.7.0.v20110531-1200,"org.eclipse.jdt.ui.CompilationUnitEditor",1317480590316
activated,editor,org.eclipse.jdt.ui,3.7.0.v20110531-1200,"org.eclipse.jdt.ui.CompilationUnitEditor",1317480594243
closed,editor,org.eclipse.jdt.ui,3.7.0.v20110531-1200,"org.eclipse.jdt.ui.CompilationUnitEditor",1317480594244
activated,view,org.eclipse.jdt.ui,3.7.0.v20110531-1200,"org.eclipse.jdt.ui.PackageExplorer",1317480599362
deactivated,workbench,org.eclipse.ui.workbench,3.7.0.I20110519-0100,"",1317480608756
activated,workbench,org.eclipse.ui.workbench,3.7.0.I20110519-0100,"",1317480697866
activated,editor,org.eclipse.jdt.ui,3.7.0.v20110531-1200,"org.eclipse.jdt.ui.CompilationUnitEditor",1317480697888
deactivated,workbench,org.eclipse.ui.workbench,3.7.0.I20110519-0100,"",1317480699372
activated,workbench,org.eclipse.ui.workbench,3.7.0.I20110519-0100,"",1317480699489
opened,editor,org.eclipse.jdt.ui,3.7.0.v20110531-1200,"org.eclipse.jdt.ui.ClassFileEditor",1317480703733
activated,editor,org.eclipse.jdt.ui,3.7.0.v20110531-1200,"org.eclipse.jdt.ui.ClassFileEditor",1317480703805
executed,command,org.eclipse.ui,3.7.0.I20110602-0100,"org.eclipse.ui.edit.copy",1317480707325
activated,editor,org.eclipse.jdt.ui,3.7.0.v20110531-1200,"org.eclipse.jdt.ui.CompilationUnitEditor",1317480708711
closed,editor,org.eclipse.jdt.ui,3.7.0.v20110531-1200,"org.eclipse.jdt.ui.ClassFileEditor",1317480708711
executed,command,org.eclipse.ui,3.7.0.I20110602-0100,"org.eclipse.ui.edit.paste",1317480711059
executed,command,org.eclipse.ui,3.7.0.I20110602-0100,"org.eclipse.ui.edit.paste",1317480714471
executed,command,org.eclipse.ui,3.7.0.I20110602-0100,"org.eclipse.ui.file.save",1317480716333
activated,editor,org.eclipse.jdt.ui,3.7.0.v20110531-1200,"org.eclipse.jdt.ui.CompilationUnitEditor",1317480719691
closed,editor,org.eclipse.jdt.ui,3.7.0.v20110531-1200,"org.eclipse.jdt.ui.CompilationUnitEditor",1317480719692
activated,view,org.eclipse.jdt.ui,3.7.0.v20110531-1200,"org.eclipse.jdt.ui.PackageExplorer",1317480726211
opened,editor,org.eclipse.jdt.ui,3.7.0.v20110531-1200,"org.eclipse.jdt.ui.CompilationUnitEditor",1317480726440
activated,editor,org.eclipse.jdt.ui,3.7.0.v20110531-1200,"org.eclipse.jdt.ui.CompilationUnitEditor",1317480726500
executed,command,org.eclipse.ui,3.7.0.I20110602-0100,"org.eclipse.ui.edit.paste",1317480729819
executed,command,org.eclipse.ui,3.7.0.I20110602-0100,"org.eclipse.ui.file.save",1317480737628
activated,view,org.eclipse.jdt.ui,3.7.0.v20110531-1200,"org.eclipse.jdt.ui.PackageExplorer",1317480810048
activated,editor,org.eclipse.jdt.ui,3.7.0.v20110531-1200,"org.eclipse.jdt.ui.CompilationUnitEditor",1317480811745
activated,editor,org.eclipse.jdt.ui,3.7.0.v20110531-1200,"org.eclipse.jdt.ui.CompilationUnitEditor",1317480814358
