what,kind,bundleId,bundleVersion,description,time
stopped,bundle,org.eclipse.wst.jsdt.web.core,1.0.400.v201104190230,"org.eclipse.wst.jsdt.web.core",1317760850025
stopped,bundle,org.eclipse.wst.html.core,1.1.500.v201104191551,"org.eclipse.wst.html.core",1317760850025
stopped,bundle,org.eclipse.wst.css.core,1.1.500.v201104191926,"org.eclipse.wst.css.core",1317760850025
stopped,bundle,org.eclipse.jpt.jaxb.eclipselink.core,1.0.0.v201105180000,"org.eclipse.jpt.jaxb.eclipselink.core",1317760850025
stopped,bundle,org.eclipse.jpt.jpa.eclipselink.core,2.0.0.v201105250000,"org.eclipse.jpt.jpa.eclipselink.core",1317760850025
stopped,bundle,org.eclipse.jpt.common.eclipselink.core,1.0.0.v201105180000,"org.eclipse.jpt.common.eclipselink.core",1317760850026
stopped,bundle,org.eclipse.jpt.jaxb.core,1.0.0.v201105240000,"org.eclipse.jpt.jaxb.core",1317760850029
stopped,bundle,org.eclipse.jpt.jpa.core,3.0.0.v201105250001,"org.eclipse.jpt.jpa.core",1317760850029
activated,perspective,org.eclipse.jdt.ui,,"org.eclipse.jdt.ui.JavaPerspective",1317921934021
started,bundle,org.eclipse.osgi,3.7.0.v20110613,"org.eclipse.osgi",1317921934022
started,bundle,org.eclipse.equinox.simpleconfigurator,1.0.200.v20110502-1955,"org.eclipse.equinox.simpleconfigurator",1317921934053
started,bundle,com.ibm.icu,4.4.2.v20110208,"com.ibm.icu",1317921934094
started,bundle,org.eclipse.compare.core,3.5.200.I20110208-0800,"org.eclipse.compare.core",1317921934140
started,bundle,org.eclipse.core.contenttype,3.4.100.v20110423-0524,"org.eclipse.core.contenttype",1317921934174
started,bundle,org.eclipse.core.databinding.observable,1.4.0.I20110222-0800,"org.eclipse.core.databinding.observable",1317921934194
started,bundle,org.eclipse.core.expressions,3.4.300.v20110228,"org.eclipse.core.expressions",1317921934218
started,bundle,org.eclipse.core.filebuffers,3.5.200.v20110505-0800,"org.eclipse.core.filebuffers",1317921934257
started,bundle,org.eclipse.core.filesystem,1.3.100.v20110423-0524,"org.eclipse.core.filesystem",1317921934270
started,bundle,org.eclipse.core.jobs,3.5.100.v20110404,"org.eclipse.core.jobs",1317921934271
started,bundle,org.eclipse.core.net,1.2.100.I20110511-0800,"org.eclipse.core.net",1317921934285
started,bundle,org.eclipse.core.resources,3.7.100.v20110510-0712,"org.eclipse.core.resources",1317921934310
started,bundle,org.eclipse.core.runtime,3.7.0.v20110110,"org.eclipse.core.runtime",1317921934335
started,bundle,org.eclipse.core.runtime.compatibility,3.2.100.v20100505,"org.eclipse.core.runtime.compatibility",1317921934344
started,bundle,org.eclipse.core.runtime.compatibility.auth,3.2.200.v20110110,"org.eclipse.core.runtime.compatibility.auth",1317921934355
started,bundle,org.eclipse.core.variables,3.2.500.v20110511,"org.eclipse.core.variables",1317921934384
started,bundle,org.eclipse.debug.core,3.7.0.v20110518,"org.eclipse.debug.core",1317921934398
started,bundle,org.eclipse.ecf,3.1.300.v20110531-2218,"org.eclipse.ecf",1317921934427
started,bundle,org.eclipse.ecf.filetransfer,5.0.0.v20110531-2218,"org.eclipse.ecf.filetransfer",1317921934453
started,bundle,org.eclipse.ecf.identity,3.1.100.v20110531-2218,"org.eclipse.ecf.identity",1317921934481
started,bundle,org.eclipse.ecf.provider.filetransfer,3.2.0.v20110531-2218,"org.eclipse.ecf.provider.filetransfer",1317921934513
started,bundle,org.eclipse.ecf.provider.filetransfer.httpclient,4.0.0.v20110531-2218,"org.eclipse.ecf.provider.filetransfer.httpclient",1317921934518
started,bundle,org.eclipse.emf.common,2.7.0.v20110605-0747,"org.eclipse.emf.common",1317921934556
started,bundle,org.eclipse.emf.ecore,2.7.0.v20110605-0747,"org.eclipse.emf.ecore",1317921934652
started,bundle,org.eclipse.emf.ecore.xmi,2.7.0.v20110520-1406,"org.eclipse.emf.ecore.xmi",1317921934673
started,bundle,org.eclipse.epp.mpc.ui,1.1.0.I20110525-0742,"org.eclipse.epp.mpc.ui",1317921934706
started,bundle,org.eclipse.epp.usagedata.gathering,1.3.1.R201106061540,"org.eclipse.epp.usagedata.gathering",1317921934737
started,bundle,org.eclipse.epp.usagedata.recording,1.3.1.R201106061540,"org.eclipse.epp.usagedata.recording",1317921934781
started,bundle,org.eclipse.equinox.app,1.3.100.v20110321,"org.eclipse.equinox.app",1317921934805
started,bundle,org.eclipse.equinox.common,3.6.0.v20110523,"org.eclipse.equinox.common",1317921934822
started,bundle,org.eclipse.equinox.ds,1.3.0.v20110502,"org.eclipse.equinox.ds",1317921934837
started,bundle,org.eclipse.equinox.event,1.2.100.v20110502,"org.eclipse.equinox.event",1317921934844
started,bundle,org.eclipse.equinox.p2.core,2.1.0.v20110502-1955,"org.eclipse.equinox.p2.core",1317921934851
started,bundle,org.eclipse.equinox.p2.directorywatcher,1.0.300.v20110502-1955,"org.eclipse.equinox.p2.directorywatcher",1317921934862
started,bundle,org.eclipse.equinox.p2.engine,2.1.0.v20110511,"org.eclipse.equinox.p2.engine",1317921934943
started,bundle,org.eclipse.equinox.p2.metadata,2.1.0.v20110510,"org.eclipse.equinox.p2.metadata",1317921934984
started,bundle,org.eclipse.equinox.p2.metadata.repository,1.2.0.v20110511-1359,"org.eclipse.equinox.p2.metadata.repository",1317921934998
started,bundle,org.eclipse.equinox.p2.operations,2.1.0.v20110511-1821,"org.eclipse.equinox.p2.operations",1317921935017
started,bundle,org.eclipse.equinox.p2.reconciler.dropins,1.1.100.v20110510,"org.eclipse.equinox.p2.reconciler.dropins",1317921935052
started,bundle,org.eclipse.equinox.p2.repository,2.1.0.v20110601,"org.eclipse.equinox.p2.repository",1317921935107
started,bundle,org.eclipse.equinox.p2.transport.ecf,1.0.0.v20110510,"org.eclipse.equinox.p2.transport.ecf",1317921935108
started,bundle,org.eclipse.equinox.p2.ui.sdk.scheduler,1.0.100.v20110502-1955,"org.eclipse.equinox.p2.ui.sdk.scheduler",1317921935125
started,bundle,org.eclipse.equinox.p2.updatechecker,1.1.200.v20110502-1955,"org.eclipse.equinox.p2.updatechecker",1317921935148
started,bundle,org.eclipse.equinox.preferences,3.4.0.v20110502,"org.eclipse.equinox.preferences",1317921935179
started,bundle,org.eclipse.equinox.registry,3.5.100.v20110502,"org.eclipse.equinox.registry",1317921935226
started,bundle,org.eclipse.equinox.security,1.1.0.v20110502,"org.eclipse.equinox.security",1317921935251
started,bundle,org.eclipse.equinox.util,1.0.300.v20110502,"org.eclipse.equinox.util",1317921935275
started,bundle,org.eclipse.help,3.5.100.v20110426,"org.eclipse.help",1317921935333
started,bundle,org.eclipse.jdt.apt.core,3.3.500.v20110420-1015,"org.eclipse.jdt.apt.core",1317921935344
started,bundle,org.eclipse.jdt.apt.pluggable.core,1.0.400.v20110305-1450,"org.eclipse.jdt.apt.pluggable.core",1317921935390
started,bundle,org.eclipse.jdt.core,3.7.0.v_B61,"org.eclipse.jdt.core",1317921935464
started,bundle,org.eclipse.jdt.core.manipulation,1.4.0.v20110505-0800,"org.eclipse.jdt.core.manipulation",1317921935477
started,bundle,org.eclipse.jdt.launching,3.6.0.v20110509,"org.eclipse.jdt.launching",1317921935532
started,bundle,org.eclipse.jdt.launching.macosx,3.2.100.v20110509,"org.eclipse.jdt.launching.macosx",1317921935533
started,bundle,org.eclipse.jdt.ui,3.7.0.v20110531-1200,"org.eclipse.jdt.ui",1317921935533
started,bundle,org.eclipse.jface,3.7.0.I20110522-1430,"org.eclipse.jface",1317921935611
started,bundle,org.eclipse.jsch.core,1.1.300.I20110514-0800,"org.eclipse.jsch.core",1317921935680
started,bundle,org.eclipse.jst.common.project.facet.core,1.4.200.v201103170302,"org.eclipse.jst.common.project.facet.core",1317921935720
started,bundle,org.eclipse.jst.ws.jaxrs.core,1.0.300.v201011231608,"org.eclipse.jst.ws.jaxrs.core",1317921935764
started,bundle,org.eclipse.jst.ws.jaxws.utils,1.0.0.v201004171919,"org.eclipse.jst.ws.jaxws.utils",1317921935824
started,bundle,org.eclipse.ltk.core.refactoring,3.5.200.v20110505-0800,"org.eclipse.ltk.core.refactoring",1317921935866
started,bundle,org.eclipse.ltk.ui.refactoring,3.6.0.v20110505-0800,"org.eclipse.ltk.ui.refactoring",1317921935933
started,bundle,org.eclipse.mylyn.bugzilla.core,3.6.0.v20110608-1400,"org.eclipse.mylyn.bugzilla.core",1317921935963
started,bundle,org.eclipse.mylyn.bugzilla.ui,3.6.0.v20110608-1400,"org.eclipse.mylyn.bugzilla.ui",1317921935994
started,bundle,org.eclipse.mylyn.commons.identity,0.8.0.v20110608-1400,"org.eclipse.mylyn.commons.identity",1317921935995
started,bundle,org.eclipse.mylyn.commons.net,3.6.0.v20110608-1400,"org.eclipse.mylyn.commons.net",1317921935995
started,bundle,org.eclipse.mylyn.commons.ui,3.6.0.v20110608-1400,"org.eclipse.mylyn.commons.ui",1317921935997
started,bundle,org.eclipse.mylyn.context.core,3.6.0.v20110608-1400,"org.eclipse.mylyn.context.core",1317921936010
started,bundle,org.eclipse.mylyn.context.ui,3.6.0.v20110608-1400,"org.eclipse.mylyn.context.ui",1317921936091
started,bundle,org.eclipse.mylyn.monitor.ui,3.6.0.v20110608-1400,"org.eclipse.mylyn.monitor.ui",1317921936121
started,bundle,org.eclipse.mylyn.tasks.ui,3.6.0.v20110608-1400,"org.eclipse.mylyn.tasks.ui",1317921936177
started,bundle,org.eclipse.mylyn.team.ui,3.6.0.v20110608-1400,"org.eclipse.mylyn.team.ui",1317921936219
started,bundle,org.eclipse.pde.launching,3.6.0.v20110506,"org.eclipse.pde.launching",1317921936230
started,bundle,org.eclipse.pde.ui,3.6.100.v20110603,"org.eclipse.pde.ui",1317921936337
started,bundle,org.eclipse.search,3.7.0.v20110505-0800,"org.eclipse.search",1317921936421
started,bundle,org.eclipse.team.core,3.6.0.I20110525-0800,"org.eclipse.team.core",1317921936442
started,bundle,org.eclipse.team.cvs.core,3.3.400.I20110510-0800,"org.eclipse.team.cvs.core",1317921936480
started,bundle,org.eclipse.team.ui,3.6.100.I20110525-0800,"org.eclipse.team.ui",1317921936543
started,bundle,org.eclipse.ui,3.7.0.I20110602-0100,"org.eclipse.ui",1317921936613
started,bundle,org.eclipse.ui.console,3.5.100.v20110511,"org.eclipse.ui.console",1317921936637
started,bundle,org.eclipse.ui.editors,3.7.0.v20110517-0800,"org.eclipse.ui.editors",1317921936637
started,bundle,org.eclipse.ui.forms,3.5.100.v20110425,"org.eclipse.ui.forms",1317921936639
started,bundle,org.eclipse.ui.ide,3.7.0.I20110519-0100,"org.eclipse.ui.ide",1317921936705
started,bundle,org.eclipse.ui.net,1.2.100.I20110511-0800,"org.eclipse.ui.net",1317921936743
started,bundle,org.eclipse.ui.views,3.6.0.I20110412-0800,"org.eclipse.ui.views",1317921936761
started,bundle,org.eclipse.ui.views.log,1.0.200.v20110404,"org.eclipse.ui.views.log",1317921936824
started,bundle,org.eclipse.ui.workbench,3.7.0.I20110519-0100,"org.eclipse.ui.workbench",1317921936853
started,bundle,org.eclipse.ui.workbench.texteditor,3.7.0.v20110505-0800,"org.eclipse.ui.workbench.texteditor",1317921936887
started,bundle,org.eclipse.update.configurator,3.3.100.v20100512,"org.eclipse.update.configurator",1317921936912
started,bundle,org.eclipse.update.core,3.2.500.v20110330,"org.eclipse.update.core",1317921936944
started,bundle,org.eclipse.update.scheduler,3.2.300.v20100512,"org.eclipse.update.scheduler",1317921936989
started,bundle,org.eclipse.wst.common.project.facet.core,1.4.200.v201103170332,"org.eclipse.wst.common.project.facet.core",1317921937034
started,bundle,org.eclipse.wst.web,1.1.500.v201104251400,"org.eclipse.wst.web",1317921937070
started,bundle,org.tigris.subversion.subclipse.tools.usage,1.0.1,"org.tigris.subversion.subclipse.tools.usage",1317921937107
started,bundle,com.springsource.sts.content.core,2.7.2.201109131000-RELEASE,"com.springsource.sts.content.core",1317921937173
started,bundle,com.springsource.sts.core,2.7.2.201109131000-RELEASE,"com.springsource.sts.core",1317921937173
started,bundle,com.springsource.sts.ide.configurator,2.7.2.201109131000-RELEASE,"com.springsource.sts.ide.configurator",1317921937186
started,bundle,com.springsource.sts.ide.ui,2.7.2.201109131000-RELEASE,"com.springsource.sts.ide.ui",1317921937288
started,bundle,com.springsource.sts.quickfix,2.7.2.201109131000-RELEASE,"com.springsource.sts.quickfix",1317921937326
started,bundle,com.springsource.sts.ui,2.7.2.201109131000-RELEASE,"com.springsource.sts.ui",1317921937347
started,bundle,com.springsource.sts.wizard,2.7.2.201109131000-RELEASE,"com.springsource.sts.wizard",1317921937712
started,bundle,org.springframework.ide.eclipse.aop.core,2.7.2.201109122348-RELEASE,"org.springframework.ide.eclipse.aop.core",1317921937751
started,bundle,org.springframework.ide.eclipse.aop.ui,2.7.2.201109122348-RELEASE,"org.springframework.ide.eclipse.aop.ui",1317921937776
started,bundle,org.springframework.ide.eclipse.beans.core,2.7.2.201109122348-RELEASE,"org.springframework.ide.eclipse.beans.core",1317921937798
started,bundle,org.springframework.ide.eclipse.beans.ui,2.7.2.201109122348-RELEASE,"org.springframework.ide.eclipse.beans.ui",1317921937854
started,bundle,org.springframework.ide.eclipse.core,2.7.2.201109122348-RELEASE,"org.springframework.ide.eclipse.core",1317921937875
started,bundle,org.springframework.ide.eclipse.osgi.targetdefinition,2.7.2.201109122348-RELEASE,"org.springframework.ide.eclipse.osgi.targetdefinition",1317921937875
started,bundle,org.springframework.ide.eclipse.ui,2.7.2.201109122348-RELEASE,"org.springframework.ide.eclipse.ui",1317921937900
started,bundle,org.eclipse.egit.core,1.1.0.201109151100-r,"org.eclipse.egit.core",1317921937923
started,bundle,org.eclipse.egit.ui,1.1.0.201109151100-r,"org.eclipse.egit.ui",1317921938000
started,bundle,org.eclipse.jgit,1.1.0.201109151100-r,"org.eclipse.jgit",1317921938001
os,sysinfo,,,"macosx",1317921938007
arch,sysinfo,,,"x86_64",1317921938007
ws,sysinfo,,,"cocoa",1317921938007
locale,sysinfo,,,"en_US",1317921938007
processors,sysinfo,,,"4",1317921938007
java.runtime.name,sysinfo,,,"Java(TM) SE Runtime Environment",1317921938007
java.runtime.version,sysinfo,,,"1.6.0_26-b03-383-11A511",1317921938007
java.specification.name,sysinfo,,,"Java Platform API Specification",1317921938007
java.specification.vendor,sysinfo,,,"Sun Microsystems Inc.",1317921938007
java.specification.version,sysinfo,,,"1.6",1317921938007
java.vendor,sysinfo,,,"Apple Inc.",1317921938007
java.version,sysinfo,,,"1.6.0_26",1317921938007
java.vm.info,sysinfo,,,"mixed mode",1317921938007
java.vm.name,sysinfo,,,"Java HotSpot(TM) 64-Bit Server VM",1317921938007
java.vm.specification.name,sysinfo,,,"Java Virtual Machine Specification",1317921938007
java.vm.specification.vendor,sysinfo,,,"Sun Microsystems Inc.",1317921938007
java.vm.specification.version,sysinfo,,,"1.0",1317921938007
java.vm.vendor,sysinfo,,,"Apple Inc.",1317921938007
java.vm.version,sysinfo,,,"20.1-b02-383",1317921938007
started,bundle,org.eclipse.equinox.p2.ui.sdk,1.0.200.v20110502-1955,"org.eclipse.equinox.p2.ui.sdk",1317921938165
started,bundle,com.springsource.sts,2.7.2.201109131000-RELEASE,"com.springsource.sts",1317921938166
started,bundle,org.tigris.subversion.clientadapter,1.6.12,"org.tigris.subversion.clientadapter",1317921938446
started,bundle,org.springframework.ide.eclipse.uaa,2.7.2.201109122348-RELEASE,"org.springframework.ide.eclipse.uaa",1317921938565
started,bundle,org.tigris.subversion.subclipse.core,1.6.18,"org.tigris.subversion.subclipse.core",1317921938676
started,bundle,org.eclipse.compare,3.5.200.I20110525-0800,"org.eclipse.compare",1317921938944
started,bundle,org.eclipse.epp.usagedata.ui,1.3.1.R201106061540,"org.eclipse.epp.usagedata.ui",1317921939152
started,bundle,org.tigris.subversion.subclipse.ui,1.6.18,"org.tigris.subversion.subclipse.ui",1317921939524
started,bundle,com.springsource.sts.ide.metadata,2.7.2.201109131000-RELEASE,"com.springsource.sts.ide.metadata",1317921939848
started,bundle,org.eclipse.contribution.weaving.jdt,2.1.3.e37x-20110628-1900,"org.eclipse.contribution.weaving.jdt",1317921939993
started,bundle,org.aspectj.ajde,1.6.12.20110613132200,"org.aspectj.ajde",1317921940122
started,bundle,org.eclipse.ajdt.core,2.1.3.e37x-20110628-1900,"org.eclipse.ajdt.core",1317921940202
started,bundle,org.eclipse.wst.sse.core,1.1.600.v201105162116,"org.eclipse.wst.sse.core",1317921941345
started,bundle,org.eclipse.wst.server.core,1.1.302.v20110518,"org.eclipse.wst.server.core",1317921943499
started,bundle,org.eclipse.wst.server.ui,1.1.305.v20110511,"org.eclipse.wst.server.ui",1317921945362
activated,workbench,org.eclipse.ui.workbench,3.7.0.I20110519-0100,"",1317921956111
activated,editor,org.eclipse.jdt.ui,3.7.0.v20110531-1200,"org.eclipse.jdt.ui.CompilationUnitEditor",1317921958232
activated,editor,org.eclipse.jdt.ui,3.7.0.v20110531-1200,"org.eclipse.jdt.ui.CompilationUnitEditor",1317921958303
closed,editor,com.springsource.sts.ide.ui,2.7.2.201109131000-RELEASE,"com.springsource.sts.internal.ide.ui.editors.MultiPageDashboardEditor",1317921958318
deactivated,workbench,org.eclipse.ui.workbench,3.7.0.I20110519-0100,"",1317921960491
activated,workbench,org.eclipse.ui.workbench,3.7.0.I20110519-0100,"",1317921997878
deactivated,workbench,org.eclipse.ui.workbench,3.7.0.I20110519-0100,"",1317922000979
activated,workbench,org.eclipse.ui.workbench,3.7.0.I20110519-0100,"",1317922015361
executed,command,org.eclipse.ui,3.7.0.I20110602-0100,"org.eclipse.ui.file.save",1317922020944
started,bundle,com.springsource.sts.ide.osgi,2.7.2.201109131000-RELEASE,"com.springsource.sts.ide.osgi",1317922021882
started,bundle,org.springframework.ide.eclipse.beans.core.metadata,2.7.2.201109122348-RELEASE,"org.springframework.ide.eclipse.beans.core.metadata",1317922021911
started,bundle,org.springframework.ide.eclipse.webflow.core,2.7.2.201109122348-RELEASE,"org.springframework.ide.eclipse.webflow.core",1317922022131
started,bundle,com.springsource.sts.config.ui,2.7.2.201109131000-RELEASE,"com.springsource.sts.config.ui",1317922022204
started,bundle,org.springframework.ide.eclipse.batch,2.7.2.201109122348-RELEASE,"org.springframework.ide.eclipse.batch",1317922022406
started,bundle,org.springframework.ide.eclipse.webflow.ui,2.7.2.201109122348-RELEASE,"org.springframework.ide.eclipse.webflow.ui",1317922023707
started,bundle,org.eclipse.debug.ui,3.7.0.v20110518,"org.eclipse.debug.ui",1317922024304
started,bundle,org.springframework.ide.eclipse.beans.mylyn,2.7.2.201109122348-RELEASE,"org.springframework.ide.eclipse.beans.mylyn",1317922024318
started,bundle,com.springsource.sts.config.core,2.7.2.201109131000-RELEASE,"com.springsource.sts.config.core",1317922024319
started,bundle,org.eclipse.ui.views.properties.tabbed,3.5.200.I20110201-0800,"org.eclipse.ui.views.properties.tabbed",1317922024322
started,bundle,org.eclipse.wst.common.frameworks,1.2.100.v201105122000,"org.eclipse.wst.common.frameworks",1317922024614
started,bundle,org.eclipse.wst.common.emf,1.2.100.v201101101900,"org.eclipse.wst.common.emf",1317922024702
started,bundle,org.eclipse.jem.util,2.1.100.v201103021400,"org.eclipse.jem.util",1317922024765
started,bundle,org.eclipse.wst.common.emfworkbench.integration,1.2.100.v201011172300,"org.eclipse.wst.common.emfworkbench.integration",1317922024787
started,bundle,org.eclipse.jdt.debug,3.7.0.v20110509,"org.eclipse.jdt.debug",1317922024947
started,bundle,org.eclipse.wst.common.core,1.2.0.v200908252030,"org.eclipse.wst.common.core",1317922024954
started,bundle,org.eclipse.wst.common.modulecore,1.2.100.v201105191800,"org.eclipse.wst.common.modulecore",1317922024988
started,bundle,org.eclipse.jdt.debug.ui,3.6.0.v20110512,"org.eclipse.jdt.debug.ui",1317922025238
started,bundle,org.eclipse.ajdt.ui,2.1.3.e37x-20110628-1900,"org.eclipse.ajdt.ui",1317922025351
started,bundle,org.eclipse.wst.xml.ui,1.1.200.v201105111835,"org.eclipse.wst.xml.ui",1317922026059
deactivated,workbench,org.eclipse.ui.workbench,3.7.0.I20110519-0100,"",1317922026215
activated,workbench,org.eclipse.ui.workbench,3.7.0.I20110519-0100,"",1317922031421
deactivated,workbench,org.eclipse.ui.workbench,3.7.0.I20110519-0100,"",1317922036805
activated,workbench,org.eclipse.ui.workbench,3.7.0.I20110519-0100,"",1317922058506
executed,command,org.eclipse.ui,3.7.0.I20110602-0100,"org.eclipse.ui.file.save",1317922062137
started,bundle,org.eclipse.wst.jsdt.debug.rhino.ui,1.0.0.v201103232243,"org.eclipse.wst.jsdt.debug.rhino.ui",1317922064502
started,bundle,org.eclipse.wst.jsdt.core,1.1.100.v201104272153,"org.eclipse.wst.jsdt.core",1317922064788
deactivated,workbench,org.eclipse.ui.workbench,3.7.0.I20110519-0100,"",1317922070087
activated,workbench,org.eclipse.ui.workbench,3.7.0.I20110519-0100,"",1317922080392
executed,command,org.eclipse.ui,3.7.0.I20110602-0100,"org.eclipse.ui.file.save",1317922083976
deactivated,workbench,org.eclipse.ui.workbench,3.7.0.I20110519-0100,"",1317922088657
activated,workbench,org.eclipse.ui.workbench,3.7.0.I20110519-0100,"",1317922091283
executed,command,org.eclipse.ui,3.7.0.I20110602-0100,"org.eclipse.ui.edit.copy",1317922102005
executed,command,org.eclipse.ui,3.7.0.I20110602-0100,"org.eclipse.ui.edit.paste",1317922102482
executed,command,org.eclipse.ui,3.7.0.I20110602-0100,"org.eclipse.ui.edit.paste",1317922102837
deactivated,workbench,org.eclipse.ui.workbench,3.7.0.I20110519-0100,"",1317922104652
activated,workbench,org.eclipse.ui.workbench,3.7.0.I20110519-0100,"",1317922121864
executed,command,org.eclipse.ui,3.7.0.I20110602-0100,"org.eclipse.ui.file.save",1317922130325
deactivated,workbench,org.eclipse.ui.workbench,3.7.0.I20110519-0100,"",1317922135440
activated,workbench,org.eclipse.ui.workbench,3.7.0.I20110519-0100,"",1317922166346
executed,command,org.eclipse.ui,3.7.0.I20110602-0100,"org.eclipse.ui.file.save",1317922169472
started,bundle,org.eclipse.jdt.junit,3.7.0.v20110505-0800,"org.eclipse.jdt.junit",1317922174773
executed,command,org.eclipse.ui,3.7.0.I20110602-0100,"org.eclipse.ui.edit.copy",1317922182440
executed,command,org.eclipse.ui,3.7.0.I20110602-0100,"org.eclipse.ui.edit.cut",1317922183670
executed,command,org.eclipse.ui,3.7.0.I20110602-0100,"org.eclipse.ui.edit.paste",1317922185701
executed,command,org.eclipse.ui,3.7.0.I20110602-0100,"org.eclipse.ui.file.save",1317922186747
deactivated,workbench,org.eclipse.ui.workbench,3.7.0.I20110519-0100,"",1317922189111
activated,workbench,org.eclipse.ui.workbench,3.7.0.I20110519-0100,"",1317922207610
deactivated,workbench,org.eclipse.ui.workbench,3.7.0.I20110519-0100,"",1317922209640
activated,workbench,org.eclipse.ui.workbench,3.7.0.I20110519-0100,"",1317922305394
executed,command,org.eclipse.ui,3.7.0.I20110602-0100,"org.eclipse.ui.file.save",1317922311374
deactivated,workbench,org.eclipse.ui.workbench,3.7.0.I20110519-0100,"",1317922315646
activated,workbench,org.eclipse.ui.workbench,3.7.0.I20110519-0100,"",1317922333366
executed,command,org.eclipse.ui,3.7.0.I20110602-0100,"org.eclipse.ui.edit.undo",1317922334495
executed,command,org.eclipse.ui,3.7.0.I20110602-0100,"org.eclipse.ui.edit.undo",1317922334818
executed,command,org.eclipse.ui,3.7.0.I20110602-0100,"org.eclipse.ui.edit.undo",1317922335248
executed,command,org.eclipse.ui,3.7.0.I20110602-0100,"org.eclipse.ui.edit.undo",1317922336312
executed,command,org.eclipse.ui,3.7.0.I20110602-0100,"org.eclipse.ui.edit.undo",1317922339072
executed,command,org.eclipse.ui,3.7.0.I20110602-0100,"org.eclipse.ui.file.save",1317922342016
executed,command,org.eclipse.ui,3.7.0.I20110602-0100,"org.eclipse.ui.file.save",1317922344612
deactivated,workbench,org.eclipse.ui.workbench,3.7.0.I20110519-0100,"",1317922350169
activated,workbench,org.eclipse.ui.workbench,3.7.0.I20110519-0100,"",1317922390343
activated,view,org.eclipse.jdt.ui,3.7.0.v20110531-1200,"org.eclipse.jdt.ui.PackageExplorer",1317922393796
started,bundle,org.eclipse.jpt.common.core,1.0.0.v201105180000,"org.eclipse.jpt.common.core",1317922395888
started,bundle,org.eclipse.jpt.jpa.core,3.0.0.v201105250001,"org.eclipse.jpt.jpa.core",1317922395907
started,bundle,org.eclipse.wst.ws.service.policy.ui,1.0.202.v201004211732,"org.eclipse.wst.ws.service.policy.ui",1317922401712
started,bundle,org.eclipse.wst.ws.service.policy,1.0.303.v201009221810,"org.eclipse.wst.ws.service.policy",1317922401714
started,bundle,org.eclipse.wst.command.env,1.0.409.v201004211805,"org.eclipse.wst.command.env",1317922401779
started,bundle,org.eclipse.wst.ws,1.1.203.v201004211805,"org.eclipse.wst.ws",1317922401781
started,bundle,org.eclipse.wst.common.frameworks.ui,1.2.100.v201105122000,"org.eclipse.wst.common.frameworks.ui",1317922401970
started,bundle,org.eclipse.ui.navigator,3.5.100.I20110524-0800,"org.eclipse.ui.navigator",1317922402273
executed,command,org.eclipse.ui.ide,3.7.0.I20110519-0100,"org.eclipse.ui.project.closeProject",1317922408575
executed,command,org.eclipse.ui.ide,3.7.0.I20110519-0100,"org.eclipse.ui.project.openProject",1317922427011
started,bundle,org.eclipse.pde.core,3.7.0.v20110603,"org.eclipse.pde.core",1317922427913
deactivated,workbench,org.eclipse.ui.workbench,3.7.0.I20110519-0100,"",1317922433523
activated,workbench,org.eclipse.ui.workbench,3.7.0.I20110519-0100,"",1317922564349
opened,editor,org.eclipse.jdt.ui,3.7.0.v20110531-1200,"org.eclipse.jdt.ui.CompilationUnitEditor",1317922576620
activated,editor,org.eclipse.jdt.ui,3.7.0.v20110531-1200,"org.eclipse.jdt.ui.CompilationUnitEditor",1317922576715
activated,view,org.eclipse.jdt.ui,3.7.0.v20110531-1200,"org.eclipse.jdt.ui.PackageExplorer",1317922594367
opened,editor,org.eclipse.jdt.ui,3.7.0.v20110531-1200,"org.eclipse.jdt.ui.CompilationUnitEditor",1317922610430
activated,editor,org.eclipse.jdt.ui,3.7.0.v20110531-1200,"org.eclipse.jdt.ui.CompilationUnitEditor",1317922610547
activated,view,org.eclipse.jdt.ui,3.7.0.v20110531-1200,"org.eclipse.jdt.ui.PackageExplorer",1317922622915
activated,editor,org.eclipse.jdt.ui,3.7.0.v20110531-1200,"org.eclipse.jdt.ui.CompilationUnitEditor",1317922624705
activated,view,org.eclipse.jdt.ui,3.7.0.v20110531-1200,"org.eclipse.jdt.ui.PackageExplorer",1317922633728
activated,editor,org.eclipse.jdt.ui,3.7.0.v20110531-1200,"org.eclipse.jdt.ui.CompilationUnitEditor",1317922634049
started,bundle,org.eclipse.equinox.p2.garbagecollector,1.0.200.v20110510,"org.eclipse.equinox.p2.garbagecollector",1317922642100
executed,command,,,"AUTOGEN:::org.eclipse.jdt.internal.ui.CompilationUnitEditor.ruler.actions/org.eclipse.jdt.internal.ui.javaeditor.JavaSelectRulerAction",1317922674278
deactivated,workbench,org.eclipse.ui.workbench,3.7.0.I20110519-0100,"",1317922676899
activated,workbench,org.eclipse.ui.workbench,3.7.0.I20110519-0100,"",1317922677165
started,bundle,org.eclipse.mylyn.ide.ui,3.6.0.v20110608-1400,"org.eclipse.mylyn.ide.ui",1317922689180
started,bundle,org.eclipse.jpt.jaxb.ui,1.1.0.v201105180000,"org.eclipse.jpt.jaxb.ui",1317922689218
started,bundle,org.eclipse.jpt.jpa.ui,3.0.0.v201105170000,"org.eclipse.jpt.jpa.ui",1317922689279
started,bundle,org.eclipse.jst.ws.jaxws.ui,1.0.100.v201104032053,"org.eclipse.jst.ws.jaxws.ui",1317922689355
started,bundle,org.eclipse.mylyn.java.ui,3.6.0.v20110608-1400,"org.eclipse.mylyn.java.ui",1317922689382
started,bundle,org.eclipse.pde.api.tools,1.0.300.v20110523-1600,"org.eclipse.pde.api.tools",1317922689489
