what,kind,bundleId,bundleVersion,description,time
started,bundle,org.eclipse.jdt.apt.core,3.3.500.v20110420-1015,"org.eclipse.jdt.apt.core",1317465581667
started,bundle,org.eclipse.jdt.apt.pluggable.core,1.0.400.v20110305-1450,"org.eclipse.jdt.apt.pluggable.core",1317465581668
started,bundle,org.eclipse.jdt.core,3.7.0.v_B61,"org.eclipse.jdt.core",1317465581668
started,bundle,org.eclipse.jdt.core.manipulation,1.4.0.v20110505-0800,"org.eclipse.jdt.core.manipulation",1317465581668
started,bundle,org.eclipse.jdt.launching,3.6.0.v20110509,"org.eclipse.jdt.launching",1317465581668
started,bundle,org.eclipse.jdt.launching.macosx,3.2.100.v20110509,"org.eclipse.jdt.launching.macosx",1317465581668
started,bundle,org.eclipse.jdt.ui,3.7.0.v20110531-1200,"org.eclipse.jdt.ui",1317465581668
started,bundle,org.eclipse.jface,3.7.0.I20110522-1430,"org.eclipse.jface",1317465581668
started,bundle,org.eclipse.jsch.core,1.1.300.I20110514-0800,"org.eclipse.jsch.core",1317465581670
started,bundle,org.eclipse.jst.common.project.facet.core,1.4.200.v201103170302,"org.eclipse.jst.common.project.facet.core",1317465581670
started,bundle,org.eclipse.jst.server.tomcat.core,1.1.300.v20110427,"org.eclipse.jst.server.tomcat.core",1317465581670
started,bundle,org.eclipse.jst.ws.jaxrs.core,1.0.300.v201011231608,"org.eclipse.jst.ws.jaxrs.core",1317465581670
started,bundle,org.eclipse.jst.ws.jaxws.utils,1.0.0.v201004171919,"org.eclipse.jst.ws.jaxws.utils",1317465581670
started,bundle,org.eclipse.ltk.core.refactoring,3.5.200.v20110505-0800,"org.eclipse.ltk.core.refactoring",1317465581670
started,bundle,org.eclipse.ltk.ui.refactoring,3.6.0.v20110505-0800,"org.eclipse.ltk.ui.refactoring",1317465581670
started,bundle,org.eclipse.mylyn.bugzilla.core,3.6.0.v20110608-1400,"org.eclipse.mylyn.bugzilla.core",1317465581671
started,bundle,org.eclipse.mylyn.bugzilla.ui,3.6.0.v20110608-1400,"org.eclipse.mylyn.bugzilla.ui",1317465581671
started,bundle,org.eclipse.mylyn.commons.identity,0.8.0.v20110608-1400,"org.eclipse.mylyn.commons.identity",1317465581671
started,bundle,org.eclipse.mylyn.commons.net,3.6.0.v20110608-1400,"org.eclipse.mylyn.commons.net",1317465581671
started,bundle,org.eclipse.mylyn.commons.ui,3.6.0.v20110608-1400,"org.eclipse.mylyn.commons.ui",1317465581672
started,bundle,org.eclipse.mylyn.context.core,3.6.0.v20110608-1400,"org.eclipse.mylyn.context.core",1317465581672
started,bundle,org.eclipse.mylyn.context.ui,3.6.0.v20110608-1400,"org.eclipse.mylyn.context.ui",1317465581672
started,bundle,org.eclipse.mylyn.monitor.ui,3.6.0.v20110608-1400,"org.eclipse.mylyn.monitor.ui",1317465581672
started,bundle,org.eclipse.mylyn.tasks.ui,3.6.0.v20110608-1400,"org.eclipse.mylyn.tasks.ui",1317465581672
started,bundle,org.eclipse.mylyn.team.ui,3.6.0.v20110608-1400,"org.eclipse.mylyn.team.ui",1317465581674
started,bundle,org.eclipse.pde.launching,3.6.0.v20110506,"org.eclipse.pde.launching",1317465581674
started,bundle,org.eclipse.pde.ui,3.6.100.v20110603,"org.eclipse.pde.ui",1317465581674
started,bundle,org.eclipse.search,3.7.0.v20110505-0800,"org.eclipse.search",1317465581674
started,bundle,org.eclipse.team.core,3.6.0.I20110525-0800,"org.eclipse.team.core",1317465581674
started,bundle,org.eclipse.team.cvs.core,3.3.400.I20110510-0800,"org.eclipse.team.cvs.core",1317465581674
started,bundle,org.eclipse.team.cvs.ui,3.3.400.I20110510-0800,"org.eclipse.team.cvs.ui",1317465581674
started,bundle,org.eclipse.team.ui,3.6.100.I20110525-0800,"org.eclipse.team.ui",1317465581674
started,bundle,org.eclipse.ui,3.7.0.I20110602-0100,"org.eclipse.ui",1317465581674
started,bundle,org.eclipse.ui.console,3.5.100.v20110511,"org.eclipse.ui.console",1317465581674
started,bundle,org.eclipse.ui.editors,3.7.0.v20110517-0800,"org.eclipse.ui.editors",1317465581674
started,bundle,org.eclipse.ui.forms,3.5.100.v20110425,"org.eclipse.ui.forms",1317465581675
started,bundle,org.eclipse.ui.ide,3.7.0.I20110519-0100,"org.eclipse.ui.ide",1317465581675
started,bundle,org.eclipse.ui.intro,3.4.100.v20110425,"org.eclipse.ui.intro",1317465581675
started,bundle,org.eclipse.ui.intro.universal,3.2.500.v20110510,"org.eclipse.ui.intro.universal",1317465581675
started,bundle,org.eclipse.ui.net,1.2.100.I20110511-0800,"org.eclipse.ui.net",1317465581675
started,bundle,org.eclipse.ui.views,3.6.0.I20110412-0800,"org.eclipse.ui.views",1317465581675
started,bundle,org.eclipse.ui.views.log,1.0.200.v20110404,"org.eclipse.ui.views.log",1317465581675
started,bundle,org.eclipse.ui.workbench,3.7.0.I20110519-0100,"org.eclipse.ui.workbench",1317465581675
started,bundle,org.eclipse.ui.workbench.texteditor,3.7.0.v20110505-0800,"org.eclipse.ui.workbench.texteditor",1317465581675
started,bundle,org.eclipse.update.configurator,3.3.100.v20100512,"org.eclipse.update.configurator",1317465581676
started,bundle,org.eclipse.update.core,3.2.500.v20110330,"org.eclipse.update.core",1317465581676
started,bundle,org.eclipse.update.scheduler,3.2.300.v20100512,"org.eclipse.update.scheduler",1317465581676
started,bundle,org.eclipse.wst.common.project.facet.core,1.4.200.v201103170332,"org.eclipse.wst.common.project.facet.core",1317465581676
started,bundle,org.eclipse.wst.server.core,1.1.302.v20110518,"org.eclipse.wst.server.core",1317465581676
started,bundle,org.eclipse.wst.server.ui,1.1.305.v20110511,"org.eclipse.wst.server.ui",1317465581676
started,bundle,org.eclipse.wst.web,1.1.500.v201104251400,"org.eclipse.wst.web",1317465581676
started,bundle,org.tigris.subversion.clientadapter,1.6.12,"org.tigris.subversion.clientadapter",1317465581676
started,bundle,org.tigris.subversion.subclipse.core,1.6.18,"org.tigris.subversion.subclipse.core",1317465581676
started,bundle,org.tigris.subversion.subclipse.tools.usage,1.0.1,"org.tigris.subversion.subclipse.tools.usage",1317465581676
started,bundle,org.tigris.subversion.subclipse.ui,1.6.18,"org.tigris.subversion.subclipse.ui",1317465581676
started,bundle,com.springsource.sts.ide.configurator,2.7.2.201109131000-RELEASE,"com.springsource.sts.ide.configurator",1317465581676
started,bundle,com.springsource.sts.ide.ui,2.7.2.201109131000-RELEASE,"com.springsource.sts.ide.ui",1317465581676
started,bundle,com.springsource.sts.quickfix,2.7.2.201109131000-RELEASE,"com.springsource.sts.quickfix",1317465581676
started,bundle,org.springframework.ide.eclipse.aop.core,2.7.2.201109122348-RELEASE,"org.springframework.ide.eclipse.aop.core",1317465581676
started,bundle,org.springframework.ide.eclipse.aop.ui,2.7.2.201109122348-RELEASE,"org.springframework.ide.eclipse.aop.ui",1317465581676
started,bundle,org.springframework.ide.eclipse.beans.core,2.7.2.201109122348-RELEASE,"org.springframework.ide.eclipse.beans.core",1317465581676
started,bundle,org.springframework.ide.eclipse.beans.ui,2.7.2.201109122348-RELEASE,"org.springframework.ide.eclipse.beans.ui",1317465581676
started,bundle,org.springframework.ide.eclipse.core,2.7.2.201109122348-RELEASE,"org.springframework.ide.eclipse.core",1317465581677
started,bundle,org.springframework.ide.eclipse.osgi.targetdefinition,2.7.2.201109122348-RELEASE,"org.springframework.ide.eclipse.osgi.targetdefinition",1317465581677
started,bundle,org.springframework.ide.eclipse.ui,2.7.2.201109122348-RELEASE,"org.springframework.ide.eclipse.ui",1317465581677
os,sysinfo,,,"macosx",1317465581681
arch,sysinfo,,,"x86_64",1317465581681
ws,sysinfo,,,"cocoa",1317465581681
locale,sysinfo,,,"en_US",1317465581681
processors,sysinfo,,,"4",1317465581681
java.runtime.name,sysinfo,,,"Java(TM) SE Runtime Environment",1317465581681
java.runtime.version,sysinfo,,,"1.6.0_26-b03-383-11A511",1317465581681
java.specification.name,sysinfo,,,"Java Platform API Specification",1317465581681
java.specification.vendor,sysinfo,,,"Sun Microsystems Inc.",1317465581681
java.specification.version,sysinfo,,,"1.6",1317465581681
java.vendor,sysinfo,,,"Apple Inc.",1317465581681
java.version,sysinfo,,,"1.6.0_26",1317465581681
java.vm.info,sysinfo,,,"mixed mode",1317465581681
java.vm.name,sysinfo,,,"Java HotSpot(TM) 64-Bit Server VM",1317465581681
java.vm.specification.name,sysinfo,,,"Java Virtual Machine Specification",1317465581681
java.vm.specification.vendor,sysinfo,,,"Sun Microsystems Inc.",1317465581681
java.vm.specification.version,sysinfo,,,"1.0",1317465581681
java.vm.vendor,sysinfo,,,"Apple Inc.",1317465581681
java.vm.version,sysinfo,,,"20.1-b02-383",1317465581681
started,bundle,org.springframework.ide.eclipse.uaa,2.7.2.201109122348-RELEASE,"org.springframework.ide.eclipse.uaa",1317465582463
activated,workbench,org.eclipse.ui.workbench,3.7.0.I20110519-0100,"",1317465923084
activated,view,org.eclipse.ui,3.7.0.I20110602-0100,"org.eclipse.ui.internal.introview",1317465923089
activated,editor,org.eclipse.jdt.ui,3.7.0.v20110531-1200,"org.eclipse.jdt.ui.CompilationUnitEditor",1317465926757
activated,view,org.eclipse.jdt.ui,3.7.0.v20110531-1200,"org.eclipse.jdt.ui.PackageExplorer",1317465926779
closed,view,org.eclipse.ui,3.7.0.I20110602-0100,"org.eclipse.ui.internal.introview",1317465926798
activated,editor,org.eclipse.jdt.ui,3.7.0.v20110531-1200,"org.eclipse.jdt.ui.CompilationUnitEditor",1317465933156
opened,editor,org.eclipse.jdt.ui,3.7.0.v20110531-1200,"org.eclipse.jdt.ui.CompilationUnitEditor",1317465933356
activated,editor,org.eclipse.jdt.ui,3.7.0.v20110531-1200,"org.eclipse.jdt.ui.CompilationUnitEditor",1317465933474
closed,editor,org.eclipse.jdt.ui,3.7.0.v20110531-1200,"org.eclipse.jdt.ui.CompilationUnitEditor",1317465933475
started,bundle,org.eclipse.jdt.junit,3.7.0.v20110505-0800,"org.eclipse.jdt.junit",1317465933525
activated,view,org.eclipse.jdt.ui,3.7.0.v20110531-1200,"org.eclipse.jdt.ui.PackageExplorer",1317465934899
deactivated,workbench,org.eclipse.ui.workbench,3.7.0.I20110519-0100,"",1317465938126
activated,workbench,org.eclipse.ui.workbench,3.7.0.I20110519-0100,"",1317465944748
executed,command,org.eclipse.ui,3.7.0.I20110602-0100,"org.eclipse.ui.edit.rename",1317465944816
deactivated,workbench,org.eclipse.ui.workbench,3.7.0.I20110519-0100,"",1317465949723
activated,workbench,org.eclipse.ui.workbench,3.7.0.I20110519-0100,"",1317465985218
deactivated,workbench,org.eclipse.ui.workbench,3.7.0.I20110519-0100,"",1317465990479
activated,workbench,org.eclipse.ui.workbench,3.7.0.I20110519-0100,"",1317466001138
started,bundle,org.eclipse.contribution.weaving.jdt,2.1.3.e37x-20110628-1900,"org.eclipse.contribution.weaving.jdt",1317466001196
started,bundle,org.aspectj.ajde,1.6.12.20110613132200,"org.aspectj.ajde",1317466001265
started,bundle,org.eclipse.ajdt.core,2.1.3.e37x-20110628-1900,"org.eclipse.ajdt.core",1317466001283
started,bundle,com.springsource.sts.ide.metadata,2.7.2.201109131000-RELEASE,"com.springsource.sts.ide.metadata",1317466001298
opened,editor,org.eclipse.jdt.ui,3.7.0.v20110531-1200,"org.eclipse.jdt.ui.CompilationUnitEditor",1317466001329
started,bundle,org.springframework.ide.eclipse.webflow.ui,2.7.2.201109122348-RELEASE,"org.springframework.ide.eclipse.webflow.ui",1317466001415
activated,editor,org.eclipse.jdt.ui,3.7.0.v20110531-1200,"org.eclipse.jdt.ui.CompilationUnitEditor",1317466001437
started,bundle,org.eclipse.wst.sse.core,1.1.600.v201105162116,"org.eclipse.wst.sse.core",1317466001495
started,bundle,org.springframework.ide.eclipse.webflow.core,2.7.2.201109122348-RELEASE,"org.springframework.ide.eclipse.webflow.core",1317466001522
started,bundle,org.eclipse.wst.common.frameworks,1.2.100.v201105122000,"org.eclipse.wst.common.frameworks",1317466001543
started,bundle,org.eclipse.wst.common.emf,1.2.100.v201101101900,"org.eclipse.wst.common.emf",1317466001547
started,bundle,org.eclipse.jem.util,2.1.100.v201103021400,"org.eclipse.jem.util",1317466001554
started,bundle,org.eclipse.wst.common.emfworkbench.integration,1.2.100.v201011172300,"org.eclipse.wst.common.emfworkbench.integration",1317466001556
started,bundle,org.eclipse.wst.common.core,1.2.0.v200908252030,"org.eclipse.wst.common.core",1317466001572
started,bundle,org.eclipse.wst.common.modulecore,1.2.100.v201105191800,"org.eclipse.wst.common.modulecore",1317466001575
started,bundle,org.eclipse.wst.xml.core,1.1.600.v201104251227,"org.eclipse.wst.xml.core",1317466006525
started,bundle,org.eclipse.mylyn.ide.ui,3.6.0.v20110608-1400,"org.eclipse.mylyn.ide.ui",1317466007835
started,bundle,org.eclipse.jpt.jaxb.ui,1.1.0.v201105180000,"org.eclipse.jpt.jaxb.ui",1317466007842
started,bundle,org.eclipse.jpt.jpa.ui,3.0.0.v201105170000,"org.eclipse.jpt.jpa.ui",1317466007846
started,bundle,org.eclipse.jpt.common.core,1.0.0.v201105180000,"org.eclipse.jpt.common.core",1317466007849
started,bundle,org.eclipse.jpt.jpa.core,3.0.0.v201105250001,"org.eclipse.jpt.jpa.core",1317466007852
started,bundle,org.eclipse.jst.ws.jaxws.ui,1.0.100.v201104032053,"org.eclipse.jst.ws.jaxws.ui",1317466007876
started,bundle,org.eclipse.mylyn.java.ui,3.6.0.v20110608-1400,"org.eclipse.mylyn.java.ui",1317466007879
started,bundle,org.eclipse.pde.api.tools,1.0.300.v20110523-1600,"org.eclipse.pde.api.tools",1317466007908
started,bundle,org.eclipse.pde.api.tools.ui,1.0.300.v20110523-1600,"org.eclipse.pde.api.tools.ui",1317466007910
started,bundle,org.eclipse.jpt.jaxb.core,1.0.0.v201105240000,"org.eclipse.jpt.jaxb.core",1317466008187
executed,command,org.eclipse.ui,3.7.0.I20110602-0100,"org.eclipse.ui.edit.text.contentAssist.proposals",1317466008351
started,bundle,org.eclipse.ajdt.ui,2.1.3.e37x-20110628-1900,"org.eclipse.ajdt.ui",1317466012001
executed,command,,,"AUTOGEN:::org.eclipse.jdt.internal.ui.CompilationUnitEditor.ruler.actions/org.eclipse.jdt.internal.ui.javaeditor.JavaSelectRulerAction",1317466012080
deactivated,workbench,org.eclipse.ui.workbench,3.7.0.I20110519-0100,"",1317466013997
activated,workbench,org.eclipse.ui.workbench,3.7.0.I20110519-0100,"",1317466014181
executed,command,org.eclipse.ui,3.7.0.I20110602-0100,"org.eclipse.ui.file.save",1317466016408
activated,view,org.eclipse.jdt.ui,3.7.0.v20110531-1200,"org.eclipse.jdt.ui.PackageExplorer",1317466026869
started,bundle,com.springsource.sts.config.ui,2.7.2.201109131000-RELEASE,"com.springsource.sts.config.ui",1317466030210
opened,editor,org.eclipse.jdt.ui,3.7.0.v20110531-1200,"org.eclipse.jdt.ui.CompilationUnitEditor",1317466035889
activated,editor,org.eclipse.jdt.ui,3.7.0.v20110531-1200,"org.eclipse.jdt.ui.CompilationUnitEditor",1317466035971
executed,command,org.eclipse.ui,3.7.0.I20110602-0100,"org.eclipse.ui.edit.copy",1317466044111
activated,editor,org.eclipse.jdt.ui,3.7.0.v20110531-1200,"org.eclipse.jdt.ui.CompilationUnitEditor",1317466045351
executed,command,org.eclipse.ui,3.7.0.I20110602-0100,"org.eclipse.ui.edit.paste",1317466050386
executed,command,org.eclipse.ui,3.7.0.I20110602-0100,"org.eclipse.ui.file.save",1317466082031
executed,command,org.eclipse.ui,3.7.0.I20110602-0100,"org.eclipse.ui.file.save",1317466158428
executed,command,org.eclipse.ui,3.7.0.I20110602-0100,"org.eclipse.ui.file.save",1317466167148
executed,command,org.eclipse.ui,3.7.0.I20110602-0100,"org.eclipse.ui.file.save",1317466172400
activated,editor,org.eclipse.jdt.ui,3.7.0.v20110531-1200,"org.eclipse.jdt.ui.CompilationUnitEditor",1317466192308
activated,editor,org.eclipse.jdt.ui,3.7.0.v20110531-1200,"org.eclipse.jdt.ui.CompilationUnitEditor",1317466194721
closed,editor,org.eclipse.jdt.ui,3.7.0.v20110531-1200,"org.eclipse.jdt.ui.CompilationUnitEditor",1317466194722
executed,command,org.eclipse.ui,3.7.0.I20110602-0100,"org.eclipse.ui.file.save",1317466209565
activated,editor,org.eclipse.jdt.ui,3.7.0.v20110531-1200,"org.eclipse.jdt.ui.CompilationUnitEditor",1317466214235
activated,view,org.eclipse.jdt.ui,3.7.0.v20110531-1200,"org.eclipse.jdt.ui.PackageExplorer",1317466219227
opened,editor,org.eclipse.jdt.ui,3.7.0.v20110531-1200,"org.eclipse.jdt.ui.CompilationUnitEditor",1317466227215
activated,editor,org.eclipse.jdt.ui,3.7.0.v20110531-1200,"org.eclipse.jdt.ui.CompilationUnitEditor",1317466227280
executed,command,org.eclipse.ui,3.7.0.I20110602-0100,"org.eclipse.ui.edit.text.contentAssist.proposals",1317466241747
deactivated,workbench,org.eclipse.ui.workbench,3.7.0.I20110519-0100,"",1317466263946
activated,workbench,org.eclipse.ui.workbench,3.7.0.I20110519-0100,"",1317466269423
executed,command,org.eclipse.jdt.ui,3.7.0.v20110531-1200,"org.eclipse.jdt.ui.edit.text.java.create.getter.setter",1317466269569
executed,command,org.eclipse.ui,3.7.0.I20110602-0100,"org.eclipse.ui.file.save",1317466270992
activated,view,org.eclipse.jdt.ui,3.7.0.v20110531-1200,"org.eclipse.jdt.ui.PackageExplorer",1317466274198
started,bundle,org.eclipse.wst.ws.service.policy.ui,1.0.202.v201004211732,"org.eclipse.wst.ws.service.policy.ui",1317466274982
started,bundle,org.eclipse.wst.ws.service.policy,1.0.303.v201009221810,"org.eclipse.wst.ws.service.policy",1317466274984
started,bundle,org.eclipse.wst.command.env,1.0.409.v201004211805,"org.eclipse.wst.command.env",1317466275115
started,bundle,org.eclipse.wst.ws,1.1.203.v201004211805,"org.eclipse.wst.ws",1317466275116
started,bundle,org.eclipse.wst.common.frameworks.ui,1.2.100.v201105122000,"org.eclipse.wst.common.frameworks.ui",1317466275141
deactivated,workbench,org.eclipse.ui.workbench,3.7.0.I20110519-0100,"",1317466278471
started,bundle,org.eclipse.ui.navigator,3.5.100.I20110524-0800,"org.eclipse.ui.navigator",1317466285620
started,bundle,org.springframework.ide.eclipse.beans.mylyn,2.7.2.201109122348-RELEASE,"org.springframework.ide.eclipse.beans.mylyn",1317466324184
started,bundle,com.springsource.sts.config.core,2.7.2.201109131000-RELEASE,"com.springsource.sts.config.core",1317466324185
started,bundle,org.eclipse.ui.views.properties.tabbed,3.5.200.I20110201-0800,"org.eclipse.ui.views.properties.tabbed",1317466324211
started,bundle,org.eclipse.gef,3.7.0.v20110407-2050,"org.eclipse.gef",1317466324244
started,bundle,com.springsource.sts.config.flow,2.7.2.201109131000-RELEASE,"com.springsource.sts.config.flow",1317466324244
started,bundle,org.eclipse.wst.sse.ui,1.3.0.v201105101529,"org.eclipse.wst.sse.ui",1317466324256
started,bundle,org.eclipse.wst.xml.ui,1.1.200.v201105111835,"org.eclipse.wst.xml.ui",1317466324280
started,bundle,org.springframework.ide.eclipse.beans.ui.graph,2.7.2.201109122348-RELEASE,"org.springframework.ide.eclipse.beans.ui.graph",1317466324326
started,bundle,org.springframework.ide.eclipse.beans.ui.refactoring,2.7.2.201109122348-RELEASE,"org.springframework.ide.eclipse.beans.ui.refactoring",1317466324424
started,bundle,org.eclipse.wst.common.uriresolver,1.1.401.v201004280700,"org.eclipse.wst.common.uriresolver",1317466324568
started,bundle,org.eclipse.debug.ui,3.7.0.v20110518,"org.eclipse.debug.ui",1317466324704
started,bundle,org.springframework.ide.eclipse.webflow.ui.editor,2.7.2.201109122348-RELEASE,"org.springframework.ide.eclipse.webflow.ui.editor",1317466324743
started,bundle,org.springframework.ide.eclipse.beans.ui.editor,2.7.2.201109122348-RELEASE,"org.springframework.ide.eclipse.beans.ui.editor",1317466324745
started,bundle,org.eclipse.wst.xsl.core,1.1.100.v201102270516,"org.eclipse.wst.xsl.core",1317466324839
started,bundle,org.eclipse.wst.xsl.exslt.core,1.0.0.v201005240426,"org.eclipse.wst.xsl.exslt.core",1317466324843
started,bundle,com.springsource.sts.ide.osgi,2.7.2.201109131000-RELEASE,"com.springsource.sts.ide.osgi",1317466324858
started,bundle,org.springframework.ide.eclipse.beans.core.metadata,2.7.2.201109122348-RELEASE,"org.springframework.ide.eclipse.beans.core.metadata",1317466324868
started,bundle,org.eclipse.wst.xsd.core,1.1.600.v201104070312,"org.eclipse.wst.xsd.core",1317466324998
started,bundle,org.eclipse.xsd,2.7.0.v20110606-0949,"org.eclipse.xsd",1317466325031
started,bundle,org.springframework.ide.eclipse.batch,2.7.2.201109122348-RELEASE,"org.springframework.ide.eclipse.batch",1317466325040
started,bundle,org.eclipse.wst.validation,1.2.300.v201104190230,"org.eclipse.wst.validation",1317466325147
started,bundle,org.eclipse.wst.internet.cache,1.0.400.v201004280700,"org.eclipse.wst.internet.cache",1317466325263
started,bundle,org.eclipse.wst.dtd.ui,1.0.600.v201103171359,"org.eclipse.wst.dtd.ui",1317466325318
started,bundle,org.eclipse.wst.xsl.ui,1.1.200.v201103082057,"org.eclipse.wst.xsl.ui",1317466325402
started,bundle,org.eclipse.draw2d,3.7.0.v20110425-2050,"org.eclipse.draw2d",1317466325540
started,bundle,org.springframework.ide.eclipse.beans.core.autowire,2.7.2.201109122348-RELEASE,"org.springframework.ide.eclipse.beans.core.autowire",1317466325620
opened,editor,com.springsource.sts.config.ui,2.7.2.201109131000-RELEASE,"com.springsource.sts.config.ui.editors.SpringConfigEditor",1317466325841
activated,editor,com.springsource.sts.config.ui,2.7.2.201109131000-RELEASE,"com.springsource.sts.config.ui.editors.SpringConfigEditor",1317466325959
activated,workbench,org.eclipse.ui.workbench,3.7.0.I20110519-0100,"",1317466326127
executed,command,org.eclipse.ui,3.7.0.I20110602-0100,"org.eclipse.ui.newWizard",1317466326462
started,bundle,org.eclipse.jst.j2ee.core,1.2.100.v201105122000,"org.eclipse.jst.j2ee.core",1317466326872
started,bundle,org.eclipse.jem,2.0.500.v201104271400,"org.eclipse.jem",1317466326883
started,bundle,org.eclipse.jst.j2ee,1.1.500.v201105122000,"org.eclipse.jst.j2ee",1317466326925
started,bundle,org.eclipse.jem.workbench,2.0.400.v201104251400,"org.eclipse.jem.workbench",1317466327017
executed,command,org.eclipse.ui,3.7.0.I20110602-0100,"org.eclipse.ui.edit.text.contentAssist.proposals",1317466336264
executed,command,org.eclipse.ui,3.7.0.I20110602-0100,"org.eclipse.ui.edit.undo",1317466360915
executed,command,org.eclipse.ui,3.7.0.I20110602-0100,"org.eclipse.ui.edit.text.contentAssist.proposals",1317466366628
deactivated,workbench,org.eclipse.ui.workbench,3.7.0.I20110519-0100,"",1317466377876
activated,workbench,org.eclipse.ui.workbench,3.7.0.I20110519-0100,"",1317466378078
executed,command,org.eclipse.ui,3.7.0.I20110602-0100,"org.eclipse.ui.edit.text.contentAssist.proposals",1317466379810
activated,view,org.eclipse.jdt.ui,3.7.0.v20110531-1200,"org.eclipse.jdt.ui.PackageExplorer",1317466387369
started,bundle,org.eclipse.jdt.debug,3.7.0.v20110509,"org.eclipse.jdt.debug",1317466395013
started,bundle,org.eclipse.jdt.debug.ui,3.6.0.v20110512,"org.eclipse.jdt.debug.ui",1317466395062
activated,editor,org.eclipse.jdt.ui,3.7.0.v20110531-1200,"org.eclipse.jdt.ui.CompilationUnitEditor",1317466395088
activated,view,org.eclipse.jdt.ui,3.7.0.v20110531-1200,"org.eclipse.jdt.ui.PackageExplorer",1317466400577
deactivated,workbench,org.eclipse.ui.workbench,3.7.0.I20110519-0100,"",1317466403200
started,bundle,org.eclipse.jst.jsp.ui,1.1.600.v201105092017,"org.eclipse.jst.jsp.ui",1317466407737
started,bundle,org.eclipse.pde.core,3.7.0.v20110603,"org.eclipse.pde.core",1317466407774
started,bundle,org.eclipse.ant.ui,3.5.100.v20110510,"org.eclipse.ant.ui",1317466407810
started,bundle,org.eclipse.wst.jsdt.debug.rhino.ui,1.0.0.v201103232243,"org.eclipse.wst.jsdt.debug.rhino.ui",1317466407813
started,bundle,org.eclipse.jst.jsp.core,1.2.400.v201105162116,"org.eclipse.jst.jsp.core",1317466407907
started,bundle,org.eclipse.wst.jsdt.manipulation,1.0.300.v201104272153,"org.eclipse.wst.jsdt.manipulation",1317466408409
started,bundle,org.eclipse.wst.jsdt.core,1.1.100.v201104272153,"org.eclipse.wst.jsdt.core",1317466408518
started,bundle,org.eclipse.wst.jsdt.ui,1.1.100.v201105041953,"org.eclipse.wst.jsdt.ui",1317466408550
activated,workbench,org.eclipse.ui.workbench,3.7.0.I20110519-0100,"",1317466409247
executed,command,org.eclipse.jdt.ui,3.7.0.v20110531-1200,"org.eclipse.jdt.ui.edit.text.java.rename.element",1317466409318
activated,editor,org.eclipse.jdt.ui,3.7.0.v20110531-1200,"org.eclipse.jdt.ui.CompilationUnitEditor",1317466411132
executed,command,org.eclipse.ui,3.7.0.I20110602-0100,"org.eclipse.ui.edit.copy",1317466412265
activated,editor,com.springsource.sts.config.ui,2.7.2.201109131000-RELEASE,"com.springsource.sts.config.ui.editors.SpringConfigEditor",1317466414091
executed,command,org.eclipse.ui,3.7.0.I20110602-0100,"org.eclipse.ui.edit.paste",1317466415861
deactivated,workbench,org.eclipse.ui.workbench,3.7.0.I20110519-0100,"",1317466428457
activated,workbench,org.eclipse.ui.workbench,3.7.0.I20110519-0100,"",1317466428492
executed,command,org.eclipse.ui,3.7.0.I20110602-0100,"org.eclipse.ui.edit.text.contentAssist.proposals",1317466429954
deactivated,workbench,org.eclipse.ui.workbench,3.7.0.I20110519-0100,"",1317466434163
activated,workbench,org.eclipse.ui.workbench,3.7.0.I20110519-0100,"",1317466434929
executed,command,org.eclipse.ui,3.7.0.I20110602-0100,"org.eclipse.ui.edit.text.contentAssist.proposals",1317466436911
deactivated,workbench,org.eclipse.ui.workbench,3.7.0.I20110519-0100,"",1317466443664
activated,workbench,org.eclipse.ui.workbench,3.7.0.I20110519-0100,"",1317466443843
executed,command,org.eclipse.ui,3.7.0.I20110602-0100,"org.eclipse.ui.file.save",1317466452405
deactivated,workbench,org.eclipse.ui.workbench,3.7.0.I20110519-0100,"",1317466475878
activated,workbench,org.eclipse.ui.workbench,3.7.0.I20110519-0100,"",1317466600776
activated,editor,org.eclipse.jdt.ui,3.7.0.v20110531-1200,"org.eclipse.jdt.ui.CompilationUnitEditor",1317466603535
activated,view,org.eclipse.jdt.ui,3.7.0.v20110531-1200,"org.eclipse.jdt.ui.PackageExplorer",1317466606533
activated,editor,org.eclipse.jdt.ui,3.7.0.v20110531-1200,"org.eclipse.jdt.ui.CompilationUnitEditor",1317466607730
activated,editor,com.springsource.sts.config.ui,2.7.2.201109131000-RELEASE,"com.springsource.sts.config.ui.editors.SpringConfigEditor",1317466617852
executed,command,org.eclipse.ui,3.7.0.I20110602-0100,"org.eclipse.ui.edit.text.contentAssist.proposals",1317466630976
executed,command,org.eclipse.ui,3.7.0.I20110602-0100,"org.eclipse.ui.edit.text.contentAssist.proposals",1317466634358
executed,command,org.eclipse.ui,3.7.0.I20110602-0100,"org.eclipse.ui.edit.text.contentAssist.proposals",1317466637023
activated,editor,org.eclipse.jdt.ui,3.7.0.v20110531-1200,"org.eclipse.jdt.ui.CompilationUnitEditor",1317466645227
activated,editor,com.springsource.sts.config.ui,2.7.2.201109131000-RELEASE,"com.springsource.sts.config.ui.editors.SpringConfigEditor",1317466651424
executed,command,org.eclipse.ui,3.7.0.I20110602-0100,"org.eclipse.ui.edit.text.contentAssist.proposals",1317466658336
executed,command,org.eclipse.ui,3.7.0.I20110602-0100,"org.eclipse.ui.edit.text.contentAssist.proposals",1317466662372
executed,command,org.eclipse.ui,3.7.0.I20110602-0100,"org.eclipse.ui.edit.text.contentAssist.proposals",1317466665346
